{
  "__type__": "cc.SpriteFrame",
  "content": {
    "name": "knight_2(2)",
    "texture": "f572cac8-6884-4cd7-a69e-9b58d77e544b",
    "atlas": "",
    "rect": [
      18,
      3,
      276,
      294
    ],
    "offset": [
      0,
      0
    ],
    "originalSize": [
      312,
      300
    ],
    "capInsets": [
      0,
      0,
      0,
      0
    ]
  }
}