{
  "__type__": "cc.SpriteFrame",
  "content": {
    "name": "attack_1",
    "texture": "6bb40370-dbbb-432c-a6f8-083edc7f9fdd",
    "atlas": "",
    "rect": [
      8,
      14,
      328,
      321
    ],
    "offset": [
      -3,
      0.5
    ],
    "originalSize": [
      350,
      350
    ],
    "capInsets": [
      0,
      0,
      0,
      0
    ]
  }
}