{
  "__type__": "cc.SpriteFrame",
  "content": {
    "name": "shield1",
    "texture": "0924f65a-af09-458b-a877-ca6e0abe12ff",
    "atlas": "",
    "rect": [
      0,
      0,
      170,
      212
    ],
    "offset": [
      0,
      0
    ],
    "originalSize": [
      170,
      212
    ],
    "capInsets": [
      0,
      0,
      0,
      0
    ]
  }
}