{
  "__type__": "cc.SpriteFrame",
  "content": {
    "name": "music_mute",
    "texture": "b9c58c1a-de6c-4130-ad9e-c092b69fdf77",
    "atlas": "",
    "rect": [
      0,
      0,
      48,
      48
    ],
    "offset": [
      0,
      0
    ],
    "originalSize": [
      48,
      48
    ],
    "capInsets": [
      0,
      0,
      0,
      0
    ]
  }
}