{
  "__type__": "cc.AnimationClip",
  "_name": "anchor",
  "_objFlags": 0,
  "_native": "",
  "_duration": 0.18333333333333332,
  "sample": 60,
  "speed": 0.3,
  "wrapMode": 2,
  "curveData": {
    "comps": {
      "cc.Sprite": {
        "spriteFrame": [
          {
            "frame": 0,
            "value": {
              "__uuid__": "68d0c80d-e58f-4f45-b909-c03f33e67766"
            }
          },
          {
            "frame": 0.08333333333333333,
            "value": {
              "__uuid__": "9effeae9-1689-458f-a5bf-a0fd0e6f3214"
            }
          },
          {
            "frame": 0.16666666666666666,
            "value": {
              "__uuid__": "9effeae9-1689-458f-a5bf-a0fd0e6f3214"
            }
          }
        ]
      }
    },
    "paths": {
      "row_1": {
        "props": {
          "position": [
            {
              "frame": 0,
              "value": [
                113.112,
                -10.515,
                0
              ]
            },
            {
              "frame": 0.08333333333333333,
              "value": [
                113.112,
                -10.515,
                0
              ]
            },
            {
              "frame": 0.1,
              "value": [
                113.112,
                -15.55,
                0
              ]
            }
          ]
        }
      }
    }
  },
  "events": []
}