{
  "__type__": "cc.AnimationClip",
  "_name": "knight_1",
  "_objFlags": 0,
  "_native": "",
  "_duration": 0.18333333333333332,
  "sample": 60,
  "speed": 0.2,
  "wrapMode": 2,
  "curveData": {
    "comps": {
      "cc.Sprite": {
        "spriteFrame": [
          {
            "frame": 0,
            "value": {
              "__uuid__": "32da31d2-1295-43dc-82c2-35ce86951c0e"
            }
          },
          {
            "frame": 0.08333333333333333,
            "value": {
              "__uuid__": "2e90e46f-49be-48a9-b985-9dc54a080352"
            }
          },
          {
            "frame": 0.16666666666666666,
            "value": {
              "__uuid__": "2e90e46f-49be-48a9-b985-9dc54a080352"
            }
          }
        ]
      }
    },
    "paths": {
      "weapon": {
        "props": {
          "position": [
            {
              "frame": 0,
              "value": [
                96.798,
                -26.589,
                0
              ]
            },
            {
              "frame": 0.08333333333333333,
              "value": [
                96.798,
                -26.589,
                0
              ]
            },
            {
              "frame": 0.1,
              "value": [
                95.913,
                -29.945,
                0
              ]
            }
          ]
        }
      }
    }
  },
  "events": []
}