[
  {
    "__type__": "cc.Prefab",
    "_name": "rainbow",
    "_objFlags": 0,
    "_native": "",
    "data": {
      "__id__": 1
    },
    "optimizationPolicy": 0,
    "asyncLoadAssets": false
  },
  {
    "__type__": "cc.Node",
    "_name": "rainbow",
    "_objFlags": 0,
    "_parent": null,
    "_children": [],
    "_active": true,
    "_level": 2,
    "_components": [
      {
        "__id__": 2
      },
      {
        "__id__": 3
      }
    ],
    "_prefab": {
      "__id__": 4
    },
    "_opacity": 255,
    "_color": {
      "__type__": "cc.Color",
      "r": 148,
      "g": 148,
      "b": 148,
      "a": 255
    },
    "_contentSize": {
      "__type__": "cc.Size",
      "width": 1581,
      "height": 722
    },
    "_anchorPoint": {
      "__type__": "cc.Vec2",
      "x": 0.5,
      "y": 0.5
    },
    "_position": {
      "__type__": "cc.Vec3",
      "x": 0,
      "y": 0,
      "z": 0
    },
    "_scale": {
      "__type__": "cc.Vec3",
      "x": 1,
      "y": 1,
      "z": 1
    },
    "_rotationX": 0,
    "_rotationY": 0,
    "_quat": {
      "__type__": "cc.Quat",
      "x": 0,
      "y": 0,
      "z": 0,
      "w": 1
    },
    "_skewX": 0,
    "_skewY": 0,
    "groupIndex": 0,
    "_id": ""
  },
  {
    "__type__": "cc.Sprite",
    "_name": "",
    "_objFlags": 0,
    "node": {
      "__id__": 1
    },
    "_enabled": true,
    "_spriteFrame": {
      "__uuid__": "f1fd47ac-478c-4712-b416-6e0797dc28fb"
    },
    "_type": 0,
    "_sizeMode": 1,
    "_fillType": 0,
    "_fillCenter": {
      "__type__": "cc.Vec2",
      "x": 0,
      "y": 0
    },
    "_fillStart": 0,
    "_fillRange": 0,
    "_isTrimmedMode": true,
    "_state": 0,
    "_atlas": null,
    "_srcBlendFactor": 770,
    "_dstBlendFactor": 771,
    "_id": ""
  },
  {
    "__type__": "97df6eDtvFL3KTZ5HLhAjVf",
    "_name": "",
    "_objFlags": 0,
    "node": {
      "__id__": 1
    },
    "_enabled": true,
    "thebit": {
      "__uuid__": "ed297887-5d0e-424a-b7ec-b06e3ea0fd88"
    },
    "pata": {
      "__uuid__": "ba282cad-d2ba-4d50-842f-a8eb8aa41f58"
    },
    "pon": {
      "__uuid__": "bc3f1426-daf7-4134-8b1b-d8b7b95ba12f"
    },
    "don": {
      "__uuid__": "f9e5b42d-4eb8-4187-bbcb-e9fc19258d43"
    },
    "chaka": {
      "__uuid__": "4a92803b-b25c-495e-9573-d73d6be6e795"
    },
    "MissSound": {
      "__uuid__": "f98ed3c0-4dc9-4781-9d4e-b4ad68fd8656"
    },
    "feversound": {
      "__uuid__": "0bea8af1-bc7e-4aad-b0d7-ddb1bf7138cf"
    },
    "bgmusic": {
      "__uuid__": "8b81c64c-b6c1-46d7-a6d7-14b516107c03"
    },
    "combostring": null,
    "marks": 0,
    "state": 0,
    "_id": ""
  },
  {
    "__type__": "cc.PrefabInfo",
    "root": {
      "__id__": 1
    },
    "asset": {
      "__id__": 0
    },
    "fileId": "70cDydG6JLy70RgRksVxct",
    "sync": false
  }
]