{
  "__type__": "cc.SpriteFrame",
  "content": {
    "name": "tile000",
    "texture": "c03506a2-4b28-4334-a4a2-2fbcf10df139",
    "atlas": "",
    "rect": [
      9,
      5,
      171,
      143
    ],
    "offset": [
      0.5,
      -1.5
    ],
    "originalSize": [
      188,
      150
    ],
    "capInsets": [
      0,
      0,
      0,
      0
    ]
  }
}