{
  "f8e6b000-5643-4b86-9080-aa680ce1f599": {
    "asset": 1556104910224,
    "meta": 1552197698000,
    "relativePath": "image"
  },
  "fc09f9bd-2cce-4605-b630-8145ef809ed6": {
    "asset": 1556104882029,
    "meta": 1552197698000,
    "relativePath": "misc"
  },
  "f6e6dd15-71d1-4ffe-ace7-24fd39942c05": {
    "asset": 1556104910392,
    "meta": 1552197698000,
    "relativePath": "obsolete"
  },
  "f743d2b6-b7ea-4c14-a55b-547ed4d0a045": {
    "asset": 1556104910399,
    "meta": 1552197698000,
    "relativePath": "particle"
  },
  "ae6c6c98-11e4-452f-8758-75f5c6a56e83": {
    "asset": 1556104910231,
    "meta": 1552197698000,
    "relativePath": "prefab"
  },
  "c8870863-68d2-400a-859c-67bdf5d08252": {
    "asset": 1561222158703,
    "meta": 1561222158746,
    "relativePath": "UI.fire"
  },
  "232a6468-e410-4e93-beeb-0247163a06ea": {
    "asset": 1561126496115,
    "meta": 1561018731790,
    "relativePath": "js"
  },
  "7bf134e3-97fd-4231-85c9-65237b6de054": {
    "asset": 1561018731818,
    "meta": 1561018785555,
    "relativePath": "ui\\Login.js.js"
  },
  "1060b5a3-a54f-4eee-9bdd-c62d8e01fdbb": {
    "asset": 1561219014046,
    "meta": 1561018731704,
    "relativePath": "img"
  },
  "cb477543-8414-4e00-914f-93ba9d69977b": {
    "asset": 1561040245908,
    "meta": 1561018731816,
    "relativePath": "ui"
  },
  "19efd994-dcc3-46db-ad8c-97b3bd4bb48c": {
    "asset": 1561033835668,
    "meta": 1561018731800,
    "relativePath": "js\\home"
  },
  "720ca480-050d-4512-a510-59e06d8f2ed7": {
    "asset": 1561018731815,
    "meta": 1561018731808,
    "relativePath": "js\\particle"
  },
  "7793ef10-0fa0-4a9b-bbd2-338cc03bac42": {
    "asset": 1561018731815,
    "meta": 1561018785540,
    "relativePath": "js\\particle\\particle.js"
  },
  "3afcdad9-8932-4f84-9a1c-6c6fdad68178": {
    "asset": 1561018731809,
    "meta": 1561018785608,
    "relativePath": "js\\particle\\C0EF6E1B-626C-204E-EC01-E76197DA8D65.plist"
  },
  "93d4217e-d608-47ff-8445-a85a5e99c115": {
    "asset": 1561018731812,
    "meta": 1561018785610,
    "relativePath": "js\\particle\\C484431C-9B05-3C4A-9701-83F32190C8D1.plist"
  },
  "11681a57-8bbe-49dd-8f00-c4f6dd91110e": {
    "asset": 1561018731736,
    "meta": 1561018783224,
    "relativePath": "img\\chest.png"
  },
  "fd5b75e6-0c37-49b7-a7a3-2973c854e232": {
    "asset": 1561018731746,
    "meta": 1561018783223,
    "relativePath": "img\\chestSel.png"
  },
  "122968cb-28b0-4869-b0b9-aff4e708f99d": {
    "asset": 1561018731753,
    "meta": 1561018783245,
    "relativePath": "img\\fight.png"
  },
  "2f8c9b96-35df-4838-b1d5-1654fb758a0a": {
    "asset": 1561018731710,
    "meta": 1561018783281,
    "relativePath": "img\\CrossSword.PNG"
  },
  "6b0ff32d-4013-4318-b1ae-0eacbce977c3": {
    "asset": 1561018731705,
    "meta": 1561018782823,
    "relativePath": "img\\Background.jpg"
  },
  "4a9a9cc8-21cb-43b3-ad00-e99c6ba21f49": {
    "asset": 1561018731749,
    "meta": 1561018783051,
    "relativePath": "img\\chest_grid.png"
  },
  "2f311320-93ba-45fa-bdbc-77e92c8bd7c5": {
    "asset": 1561018731748,
    "meta": 1561018783004,
    "relativePath": "img\\chest_bg.png"
  },
  "73624591-6350-4a61-9f11-62adba620721": {
    "asset": 1561018731748,
    "meta": 1561018782973,
    "relativePath": "img\\chest_bg_left.png"
  },
  "a4acb715-c799-4655-8bc5-42a8cdcdc9ec": {
    "asset": 1561018731787,
    "meta": 1561018783417,
    "relativePath": "img\\人.PNG"
  },
  "21f71407-4289-4f3f-b173-dc38ff736260": {
    "asset": 1561018731750,
    "meta": 1561018783068,
    "relativePath": "img\\chest_grid2.png"
  },
  "37b69032-8c11-4f87-a93d-b2a1dc20bb9c": {
    "asset": 1561018731751,
    "meta": 1561018783070,
    "relativePath": "img\\chest_grid3.png"
  },
  "3e3f30cf-aa8b-473f-bd4a-ab2aeee85c9f": {
    "asset": 1561018731725,
    "meta": 1561018782951,
    "relativePath": "img\\bg_chest.jpg"
  },
  "bd56b64d-08bd-4011-b5ad-4a066c16ecff": {
    "asset": 1561018731759,
    "meta": 1561018783311,
    "relativePath": "img\\house.png"
  },
  "b225e2eb-cfae-4b1a-97b0-3564401fc68e": {
    "asset": 1561018731723,
    "meta": 1561018782899,
    "relativePath": "img\\backpack.png"
  },
  "24fdc8df-4380-4912-ba60-8c79531a33b8": {
    "asset": 1561018731717,
    "meta": 1561018782756,
    "relativePath": "img\\back.png"
  },
  "0293bb69-e71c-4177-9073-0a6aab2e27eb": {
    "asset": 1561018731716,
    "meta": 1561018782715,
    "relativePath": "img\\arrow.PNG"
  },
  "610aea18-2a80-4550-9cf4-e98edf3e5ca0": {
    "asset": 1561018731785,
    "meta": 1561018783395,
    "relativePath": "img\\title_wood.png"
  },
  "b2a08fe0-4cdf-4092-b12a-571604742d8e": {
    "asset": 1561170799599,
    "meta": 1561170799622,
    "relativePath": "Level.fire"
  },
  "f112ab67-cb7a-4592-bc70-9588f2648ff5": {
    "asset": 1561018731793,
    "meta": 1561018731791,
    "relativePath": "js\\Level"
  },
  "9acdb834-faee-41df-921f-291eebe110e9": {
    "asset": 1561018731693,
    "meta": 1561018783048,
    "relativePath": "atlas\\1000x1000.png"
  },
  "506d4ebf-296f-44b4-b853-2fd263cfebfc": {
    "asset": 1561018731760,
    "meta": 1561018783295,
    "relativePath": "img\\littleBag.png"
  },
  "b330a4c1-2f46-43cf-bf7b-4970f610a3b0": {
    "asset": 1561018731704,
    "meta": 1561018731677,
    "relativePath": "atlas"
  },
  "b381da00-d4ec-4428-9659-7f63a0961609": {
    "asset": 1561018731694,
    "meta": 1561018782547,
    "relativePath": "atlas\\portal.pac"
  },
  "52756422-bb3f-4c0d-9ad8-d565b43883f7": {
    "asset": 1561018731695,
    "meta": 1561018785576,
    "relativePath": "atlas\\portal.plist"
  },
  "5dee49d8-0b9a-4faa-b270-b3d777f51d48": {
    "asset": 1561018731701,
    "meta": 1561018782635,
    "relativePath": "atlas\\portal.png"
  },
  "33074d2e-d023-408c-b5af-86ea84795260": {
    "asset": 1561106823776,
    "meta": 1561018731673,
    "relativePath": "animation"
  },
  "99b61998-08d2-4355-abe7-03fe5c2ed15a": {
    "asset": 1561018731673,
    "meta": 1561018782539,
    "relativePath": "animation\\portal.anim"
  },
  "44415bd4-c02c-4c07-8a60-25ee66caba88": {
    "asset": 1561018731806,
    "meta": 1561018785478,
    "relativePath": "js\\home\\portal.js"
  },
  "b7dee4c0-7de4-4dfe-8055-5916869647bd": {
    "asset": 1561194606146,
    "meta": 1561018731669,
    "relativePath": "Prefab"
  },
  "03b47ebb-ead0-47ab-8510-5a9c5c045137": {
    "asset": 1561018731671,
    "meta": 1561018785546,
    "relativePath": "Prefab\\portal.prefab"
  },
  "ee05dd1f-9a46-41f2-b790-6967c2f513b4": {
    "asset": 1561018731783,
    "meta": 1561018731768,
    "relativePath": "img\\selectLevel"
  },
  "3b497be4-cae6-4954-bc7b-124b29eadeb2": {
    "asset": 1561018731778,
    "meta": 1561018783362,
    "relativePath": "img\\selectLevel\\forest.png"
  },
  "b4e793aa-0aaf-49c3-90e4-a6b2e4805dc0": {
    "asset": 1561018731773,
    "meta": 1561018783350,
    "relativePath": "img\\selectLevel\\desert.png"
  },
  "24194cd6-1302-4edf-b59a-1f69ae9cb7f1": {
    "asset": 1561018731793,
    "meta": 1561018785526,
    "relativePath": "js\\Level\\border.js"
  },
  "4e538dbb-f40a-4f2a-8d73-b2e0d9d94f75": {
    "asset": 1561018731783,
    "meta": 1561018783370,
    "relativePath": "img\\selectLevel\\questionMark.PNG"
  },
  "5c6deb20-09fd-4a49-b5ce-fa233174da90": {
    "asset": 1561018731702,
    "meta": 1561018785579,
    "relativePath": "atlas\\prototype.plist"
  },
  "f5d0d758-9adb-4fb2-8e79-fd1cc753c69b": {
    "asset": 1561018731703,
    "meta": 1561018782664,
    "relativePath": "atlas\\prototype.png"
  },
  "ac834f98-61c2-4868-9990-37c441f91e35": {
    "asset": 1561020536665,
    "meta": 1561020536686,
    "relativePath": "animation\\prototype_walk.anim"
  },
  "314804b7-223a-438a-ba00-665ef2fa91ef": {
    "asset": 1561018731798,
    "meta": 1561018731796,
    "relativePath": "js\\animation"
  },
  "1dff7d95-8c2c-45f3-b927-b274afa66a1c": {
    "asset": 1561098617370,
    "meta": 1561018731785,
    "relativePath": "img\\weapon"
  },
  "4987cbfb-0251-408f-a02c-ab73d3d5e663": {
    "asset": 1561018731797,
    "meta": 1561018785306,
    "relativePath": "js\\animation\\loopAnimation.js"
  },
  "d15a5860-d017-44f6-85b8-95fdb5103306": {
    "asset": 1561018856686,
    "meta": 1561018831354,
    "relativePath": "img\\home"
  },
  "7cf557ff-1cdb-4a48-a91e-419f0cdc134e": {
    "asset": 1561018856677,
    "meta": 1561018856741,
    "relativePath": "img\\home\\music.png"
  },
  "df5a9a5e-69c2-44de-a284-8b92afac7ff1": {
    "asset": 1561018856676,
    "meta": 1561018856744,
    "relativePath": "img\\home\\house.png"
  },
  "b9c58c1a-de6c-4130-ad9e-c092b69fdf77": {
    "asset": 1561018856677,
    "meta": 1561018856770,
    "relativePath": "img\\home\\music_mute.png"
  },
  "73985643-8df7-464c-925c-6745d93cf820": {
    "asset": 1561018856678,
    "meta": 1561018856800,
    "relativePath": "img\\home\\bg.png"
  },
  "72ca72ef-f47a-404b-8607-5f240c3e6a6a": {
    "asset": 1561039948350,
    "meta": 1561039948371,
    "relativePath": "Prefab\\Kirito.prefab"
  },
  "276f7df8-6aeb-4d68-b8d1-df9e1383ffd3": {
    "asset": 1561019402773,
    "meta": 1561033471109,
    "relativePath": "img\\weapon\\arrow2.png"
  },
  "9084ad0e-57f5-496c-b682-713ee068e616": {
    "asset": 1561019402774,
    "meta": 1561033480349,
    "relativePath": "img\\weapon\\spear2.png"
  },
  "c97f8e14-da4e-49a8-a81b-57bb29fc4e37": {
    "asset": 1561019402774,
    "meta": 1561033475465,
    "relativePath": "img\\weapon\\arrow1.png"
  },
  "743799c7-72ba-4dac-aaa3-1611597bda57": {
    "asset": 1561019402775,
    "meta": 1561033452072,
    "relativePath": "img\\weapon\\bow2.png"
  },
  "3462f4d1-e28b-4ea4-b565-f184991a4a31": {
    "asset": 1561019402775,
    "meta": 1561033447448,
    "relativePath": "img\\weapon\\sword2.png"
  },
  "ecaff186-9d5b-470b-938a-22f7014cc60e": {
    "asset": 1561019402775,
    "meta": 1561033458204,
    "relativePath": "img\\weapon\\bow1.png"
  },
  "4a316ac6-7171-483e-ba64-c56a9e9a8d9f": {
    "asset": 1561019402776,
    "meta": 1561033442623,
    "relativePath": "img\\weapon\\sword1.png"
  },
  "917d27bc-cddb-4441-ade3-065fc48983a2": {
    "asset": 1561019472476,
    "meta": 1561019472486,
    "relativePath": "animation\\swordMove.anim"
  },
  "8ce25546-6256-4897-ae65-b5a6021a4490": {
    "asset": 1561020763948,
    "meta": 1561020764078,
    "relativePath": "animation\\arrowMove.anim"
  },
  "8a6733e1-eb09-488a-8043-b4862596e253": {
    "asset": 1561021673487,
    "meta": 1561021673511,
    "relativePath": "animation\\spearMove.anim"
  },
  "a0271fe6-ce20-409e-92ad-287da28982a3": {
    "asset": 1561040013892,
    "meta": 1561040013907,
    "relativePath": "Prefab\\Lancer.prefab"
  },
  "3e7dde1f-8f90-4ba8-8535-6f2f0c8389e8": {
    "asset": 1561251727472,
    "meta": 1561251727507,
    "relativePath": "Chest.fire"
  },
  "87ec701f-a594-49f2-9634-5b90711df422": {
    "asset": 1561249644802,
    "meta": 1561249644838,
    "relativePath": "Home.fire"
  },
  "b153530b-5e65-4bcd-8980-e67eace42a1b": {
    "asset": 1561034410022,
    "meta": 1561034595051,
    "relativePath": "js\\home\\goToLevel.js"
  },
  "9a5b4965-d6f0-4368-afd3-149f9f44a948": {
    "asset": 1561039996633,
    "meta": 1561040002307,
    "relativePath": "img\\weapon\\spear1.png"
  },
  "5d0ec114-ddd5-47e3-baae-693cf5bc667b": {
    "asset": 1561040231815,
    "meta": 1561040122450,
    "relativePath": "img\\battleground"
  },
  "b8ef45f5-b513-4d0d-8bee-135ee951ebbb": {
    "asset": 1561040231757,
    "meta": 1561040231884,
    "relativePath": "img\\battleground\\game_3_ground.png"
  },
  "08a6f482-8f92-4f3d-84c1-6475d7c22ce6": {
    "asset": 1561040231758,
    "meta": 1561040231894,
    "relativePath": "img\\battleground\\game_2_background.png"
  },
  "e02f0b14-be7f-4fc9-b73c-0b44727dac6d": {
    "asset": 1561040231760,
    "meta": 1561040231946,
    "relativePath": "img\\battleground\\background1.png"
  },
  "38e1d3b8-9338-4808-9a9a-65de02be093f": {
    "asset": 1561040231759,
    "meta": 1561040231954,
    "relativePath": "img\\battleground\\game_3_background.png"
  },
  "5fa03a0a-babd-426b-aef5-e1ee5618b0da": {
    "asset": 1561040231760,
    "meta": 1561040232011,
    "relativePath": "img\\battleground\\game_1_ground.png"
  },
  "35b7dd74-cb67-42c9-86ac-a181e503b390": {
    "asset": 1561040231761,
    "meta": 1561040232020,
    "relativePath": "img\\battleground\\game_1_background.png"
  },
  "f4eab9b4-4fe9-4668-a3a8-e0b6db2c5d1c": {
    "asset": 1561040231763,
    "meta": 1561040232066,
    "relativePath": "img\\battleground\\background.png"
  },
  "3f5ed2ec-d1d0-43ce-a8dd-8dff8bc2c677": {
    "asset": 1561040231762,
    "meta": 1561040232074,
    "relativePath": "img\\battleground\\game_4_ground.png"
  },
  "4c8cb744-0098-4001-a306-73e08c2c0bee": {
    "asset": 1561040231764,
    "meta": 1561040232132,
    "relativePath": "img\\battleground\\game_2_ground.png"
  },
  "47252511-86b4-4e19-831d-2b48a39f885a": {
    "asset": 1561040231764,
    "meta": 1561040232140,
    "relativePath": "img\\battleground\\game_4_background.png"
  },
  "f421c8b8-034c-4f7a-959b-8f69c39fcd97": {
    "asset": 1561041545562,
    "meta": 1561041557088,
    "relativePath": "img\\Thumbs.db"
  },
  "ac6d87d4-0d57-4ff2-85b2-af66faa3f678": {
    "asset": 1561204565771,
    "meta": 1561096267072,
    "relativePath": "Boss_Enemy_Attack"
  },
  "26ac9732-1382-44d6-822e-4002207299d8": {
    "asset": 1561096267075,
    "meta": 1561096266531,
    "relativePath": "Boss_Enemy_Attack\\attack"
  },
  "4659b0d6-dc47-47b9-850d-f2207f86de91": {
    "asset": 1561096266936,
    "meta": 1561096266759,
    "relativePath": "Boss_Enemy_Attack\\attack\\anim"
  },
  "2adc4793-3598-4f5d-82bb-21fe1d0c9a4e": {
    "asset": 1561096266938,
    "meta": 1561096266760,
    "relativePath": "Boss_Enemy_Attack\\attack\\prefab"
  },
  "6435bc97-9897-48cb-883a-aa894ce896fb": {
    "asset": 1561096266993,
    "meta": 1561096267202,
    "relativePath": "Boss_Enemy_Attack\\attack\\anim\\attack.anim"
  },
  "d5ea2198-6fb8-449a-b564-9978e97f50f4": {
    "asset": 1561096266992,
    "meta": 1561096267213,
    "relativePath": "Boss_Enemy_Attack\\attack\\prefab\\attack.prefab"
  },
  "7705305f-e907-4b30-87f8-1c72341edb39": {
    "asset": 1561096266923,
    "meta": 1561096268450,
    "relativePath": "Boss_Enemy_Attack\\attack\\Thumbs.db"
  },
  "5ab011c2-f8a4-4ef7-b546-747b395aa413": {
    "asset": 1561096266759,
    "meta": 1561096268503,
    "relativePath": "Boss_Enemy_Attack\\attack\\tile000.png"
  },
  "f604726a-002a-41f9-afc1-25a8f597cbc8": {
    "asset": 1561096266761,
    "meta": 1561096268514,
    "relativePath": "Boss_Enemy_Attack\\attack\\tile001.png"
  },
  "5061ff95-a75b-49ff-a7cc-c1396afb095e": {
    "asset": 1561096266761,
    "meta": 1561096268535,
    "relativePath": "Boss_Enemy_Attack\\attack\\tile002.png"
  },
  "a93a64f3-d0d1-43cb-98df-5d79b6188baa": {
    "asset": 1561096266764,
    "meta": 1561096268543,
    "relativePath": "Boss_Enemy_Attack\\attack\\tile003.png"
  },
  "492309fe-e729-455e-9c98-a86f413e29e7": {
    "asset": 1561096266764,
    "meta": 1561096268565,
    "relativePath": "Boss_Enemy_Attack\\attack\\tile005.png"
  },
  "959efa88-fae6-42bc-a28f-0a05f3ed1092": {
    "asset": 1561096266762,
    "meta": 1561096268573,
    "relativePath": "Boss_Enemy_Attack\\attack\\tile004.png"
  },
  "e791b612-68ce-4fce-b687-a0351ad58ea6": {
    "asset": 1561096266768,
    "meta": 1561096268596,
    "relativePath": "Boss_Enemy_Attack\\attack\\tile007.png"
  },
  "1ab4fe14-8e74-403f-8d7f-21fedae48068": {
    "asset": 1561096266766,
    "meta": 1561096268605,
    "relativePath": "Boss_Enemy_Attack\\attack\\tile006.png"
  },
  "89bde1a3-11cb-4896-a2dc-85eb9f35986e": {
    "asset": 1561096266768,
    "meta": 1561096268627,
    "relativePath": "Boss_Enemy_Attack\\attack\\tile009.png"
  },
  "faebb21a-fd7a-46af-877a-4e845c4f40ff": {
    "asset": 1561096266767,
    "meta": 1561096268636,
    "relativePath": "Boss_Enemy_Attack\\attack\\tile008.png"
  },
  "c8976442-a2b4-4b6f-a282-8f0b2bbe3949": {
    "asset": 1561096266772,
    "meta": 1561096268658,
    "relativePath": "Boss_Enemy_Attack\\attack\\tile010.png"
  },
  "c6c5e649-2995-4814-a58a-444218f1543d": {
    "asset": 1561096266770,
    "meta": 1561096268667,
    "relativePath": "Boss_Enemy_Attack\\attack\\tile011.png"
  },
  "2f032b4d-7777-4008-aa4e-396b0b6b3f42": {
    "asset": 1561096266772,
    "meta": 1561096268687,
    "relativePath": "Boss_Enemy_Attack\\attack\\tile012.png"
  },
  "28c591a8-5b1e-4656-84c7-4e79b6ba3d99": {
    "asset": 1561096266773,
    "meta": 1561096268695,
    "relativePath": "Boss_Enemy_Attack\\attack\\tile013.png"
  },
  "1983d80b-ff4d-4f96-8757-3db50d107e2a": {
    "asset": 1561096266776,
    "meta": 1561096268714,
    "relativePath": "Boss_Enemy_Attack\\attack\\tile014.png"
  },
  "1be8511a-0af0-41ea-94c2-0fb5f351b4be": {
    "asset": 1561096266775,
    "meta": 1561096268721,
    "relativePath": "Boss_Enemy_Attack\\attack\\tile015.png"
  },
  "5e7a4c8d-e37b-4995-9a6a-f6023033e4f8": {
    "asset": 1561096266776,
    "meta": 1561096268739,
    "relativePath": "Boss_Enemy_Attack\\attack\\tile016.png"
  },
  "910a8230-4cd8-4692-86da-88e49caef39f": {
    "asset": 1561096266779,
    "meta": 1561096268746,
    "relativePath": "Boss_Enemy_Attack\\attack\\tile017.png"
  },
  "e6fd0b45-ca18-4bf7-a3c1-37ae0ca515a5": {
    "asset": 1561096267089,
    "meta": 1561096266531,
    "relativePath": "Boss_Enemy_Attack\\attack2"
  },
  "405e4c24-36a7-4248-8db5-9425ae2ec494": {
    "asset": 1561096266942,
    "meta": 1561096266781,
    "relativePath": "Boss_Enemy_Attack\\attack2\\anim"
  },
  "5eab8996-fbd2-472e-8a7e-478f126be143": {
    "asset": 1561096266994,
    "meta": 1561096268752,
    "relativePath": "Boss_Enemy_Attack\\attack2\\anim\\attack2.anim"
  },
  "7c58b640-ad31-41a4-9582-a7a5f1d42e51": {
    "asset": 1561096266939,
    "meta": 1561096266783,
    "relativePath": "Boss_Enemy_Attack\\attack2\\prefab"
  },
  "58010bde-111e-429f-bfbb-3d50e3723de2": {
    "asset": 1561096266993,
    "meta": 1561096268760,
    "relativePath": "Boss_Enemy_Attack\\attack2\\prefab\\attack2.prefab"
  },
  "7b75a51e-5725-481c-8b1f-ab21a6258fc6": {
    "asset": 1561096266777,
    "meta": 1561096268778,
    "relativePath": "Boss_Enemy_Attack\\attack\\tile018.png"
  },
  "85b1d02f-1bd9-4c3b-a481-c5e6b9d8dd8c": {
    "asset": 1561096266924,
    "meta": 1561096268780,
    "relativePath": "Boss_Enemy_Attack\\attack2\\Thumbs.db"
  },
  "732cd487-a8b9-41f4-9371-1703b4a4d6fb": {
    "asset": 1561096266918,
    "meta": 1561096268809,
    "relativePath": "Boss_Enemy_Attack\\attack2\\tile010.png"
  },
  "53471489-9b02-409b-a496-2a0cc5b4e219": {
    "asset": 1561096266917,
    "meta": 1561096268817,
    "relativePath": "Boss_Enemy_Attack\\attack2\\tile011.png"
  },
  "f5910808-6649-4431-ba7c-07eb58e72ce7": {
    "asset": 1561096266924,
    "meta": 1561096268846,
    "relativePath": "Boss_Enemy_Attack\\attack2\\tile012.png"
  },
  "a7549ff0-4a62-414c-bf1d-0fa1c0e51890": {
    "asset": 1561096266916,
    "meta": 1561096268856,
    "relativePath": "Boss_Enemy_Attack\\attack2\\tile013.png"
  },
  "9350e3e8-8b33-45e9-a6af-acb4bce4e2d2": {
    "asset": 1561096266924,
    "meta": 1561096268884,
    "relativePath": "Boss_Enemy_Attack\\attack2\\tile014.png"
  },
  "d0881f44-f8e9-46b8-9b99-d0e866ee3a86": {
    "asset": 1561096266788,
    "meta": 1561096268892,
    "relativePath": "Boss_Enemy_Attack\\attack2\\tile015.png"
  },
  "eb6d707b-a18b-445b-849a-2685fc92c3aa": {
    "asset": 1561096266788,
    "meta": 1561096268920,
    "relativePath": "Boss_Enemy_Attack\\attack2\\tile016.png"
  },
  "ec600c7b-5e7f-483a-b522-285e549be337": {
    "asset": 1561096266789,
    "meta": 1561096268929,
    "relativePath": "Boss_Enemy_Attack\\attack2\\tile017.png"
  },
  "1ef90956-a3cf-4dfa-be45-1a1652112480": {
    "asset": 1561096266794,
    "meta": 1561096268959,
    "relativePath": "Boss_Enemy_Attack\\attack2\\tile019.png"
  },
  "9f6c359f-3f52-41bc-a924-ebde8c2d1a00": {
    "asset": 1561096266791,
    "meta": 1561096268968,
    "relativePath": "Boss_Enemy_Attack\\attack2\\tile018.png"
  },
  "4528fb05-3e80-4d6a-b798-22850bba5bb1": {
    "asset": 1561096266794,
    "meta": 1561096268996,
    "relativePath": "Boss_Enemy_Attack\\attack2\\tile020.png"
  },
  "db4bc0e0-6079-4e3d-9ca3-eee4310e9514": {
    "asset": 1561096266793,
    "meta": 1561096269008,
    "relativePath": "Boss_Enemy_Attack\\attack2\\tile021.png"
  },
  "f042fbfb-7716-42b9-9814-18b92e4b537b": {
    "asset": 1561096266630,
    "meta": 1561096266529,
    "relativePath": "Boss_Enemy_Attack\\attack3"
  },
  "5e61a130-41c7-4a6e-aa57-2d1eac3590e9": {
    "asset": 1561096266948,
    "meta": 1561096266812,
    "relativePath": "Boss_Enemy_Attack\\attack3\\anim"
  },
  "bc54ff61-049c-4ded-8c98-fdaa66db46d3": {
    "asset": 1561096266951,
    "meta": 1561096266813,
    "relativePath": "Boss_Enemy_Attack\\attack3\\prefab"
  },
  "bfa63963-9d48-4009-94b1-bdd0be424000": {
    "asset": 1561096266997,
    "meta": 1561096269015,
    "relativePath": "Boss_Enemy_Attack\\attack3\\anim\\attack3.anim"
  },
  "7dc34afd-9a9d-4507-a5c9-281773663fb8": {
    "asset": 1561096266999,
    "meta": 1561096269022,
    "relativePath": "Boss_Enemy_Attack\\attack3\\prefab\\attack3.prefab"
  },
  "cb8f5d90-fd34-4bad-b95b-d78dc5bb605e": {
    "asset": 1561096266814,
    "meta": 1561096269054,
    "relativePath": "Boss_Enemy_Attack\\attack3\\tile000.png"
  },
  "e12f15ec-c59e-4360-94d9-1f3aee89bd71": {
    "asset": 1561096266815,
    "meta": 1561096269065,
    "relativePath": "Boss_Enemy_Attack\\attack3\\tile001.png"
  },
  "dbd5ed11-5ab1-4563-ac4a-623c6c244861": {
    "asset": 1561096266815,
    "meta": 1561096269099,
    "relativePath": "Boss_Enemy_Attack\\attack3\\tile003.png"
  },
  "0ae8aaa2-429b-4b41-be86-9c97b4ec8106": {
    "asset": 1561096266816,
    "meta": 1561096269110,
    "relativePath": "Boss_Enemy_Attack\\attack3\\tile002.png"
  },
  "6219dbfe-07fa-4af4-ae89-9209b3117793": {
    "asset": 1561096266817,
    "meta": 1561096269142,
    "relativePath": "Boss_Enemy_Attack\\attack3\\tile004.png"
  },
  "f2674597-142f-42a3-ad21-37f271e75ec5": {
    "asset": 1561096266818,
    "meta": 1561096269154,
    "relativePath": "Boss_Enemy_Attack\\attack3\\tile005.png"
  },
  "d12908cf-e3cd-4c09-baa0-6f51f859cfb3": {
    "asset": 1561096266952,
    "meta": 1561096269183,
    "relativePath": "Boss_Enemy_Attack\\attack3\\tile006.png"
  },
  "fdaa8df6-60ea-4f46-bfc4-2ad97c0e364d": {
    "asset": 1561096266933,
    "meta": 1561096269191,
    "relativePath": "Boss_Enemy_Attack\\attack3\\tile007.png"
  },
  "a50480df-4219-4bba-ad4a-39e9df712490": {
    "asset": 1561096266934,
    "meta": 1561096269227,
    "relativePath": "Boss_Enemy_Attack\\attack3\\tile009.png"
  },
  "e5945787-2954-4ed5-853a-5357feba748f": {
    "asset": 1561096266934,
    "meta": 1561096269235,
    "relativePath": "Boss_Enemy_Attack\\attack3\\tile008.png"
  },
  "cb1c7c8f-7a34-4c53-9b8c-49450f01009e": {
    "asset": 1561096266825,
    "meta": 1561096269265,
    "relativePath": "Boss_Enemy_Attack\\attack3\\tile011.png"
  },
  "175ff8b8-95c4-4fe4-8a7c-be224583b102": {
    "asset": 1561096266935,
    "meta": 1561096269275,
    "relativePath": "Boss_Enemy_Attack\\attack3\\tile010.png"
  },
  "6f92ede4-6848-4253-af41-97a903635527": {
    "asset": 1561096266827,
    "meta": 1561096269306,
    "relativePath": "Boss_Enemy_Attack\\attack3\\tile012.png"
  },
  "6828b390-7eaa-49a8-9073-71fa92cd460b": {
    "asset": 1561096266827,
    "meta": 1561096269317,
    "relativePath": "Boss_Enemy_Attack\\attack3\\tile013.png"
  },
  "9bcb5e3a-95d8-4908-971d-aa0f4eddca25": {
    "asset": 1561096266607,
    "meta": 1561096266532,
    "relativePath": "Boss_Enemy_Attack\\attack4"
  },
  "23e9cb65-9065-4eed-a6bc-3fcfaa6af7ae": {
    "asset": 1561096266943,
    "meta": 1561096266797,
    "relativePath": "Boss_Enemy_Attack\\attack4\\anim"
  },
  "09c89c91-59ae-4fdd-a37d-976409b041f5": {
    "asset": 1561096266946,
    "meta": 1561096266799,
    "relativePath": "Boss_Enemy_Attack\\attack4\\prefab"
  },
  "4f924e43-9333-4429-9eb8-1e86bdcc779f": {
    "asset": 1561096266995,
    "meta": 1561096269324,
    "relativePath": "Boss_Enemy_Attack\\attack4\\anim\\attack4.anim"
  },
  "bc6101c0-c15c-4d81-bf18-08a807913e72": {
    "asset": 1561096266996,
    "meta": 1561096269331,
    "relativePath": "Boss_Enemy_Attack\\attack4\\prefab\\attack4.prefab"
  },
  "828b326b-1b74-483d-a107-8dcfcfbf7601": {
    "asset": 1561096266796,
    "meta": 1561096269351,
    "relativePath": "Boss_Enemy_Attack\\attack4\\tile000.png"
  },
  "fd09e359-ada5-4840-97f2-6b629e17bd42": {
    "asset": 1561096266799,
    "meta": 1561096269359,
    "relativePath": "Boss_Enemy_Attack\\attack4\\tile001.png"
  },
  "7c8223b0-eeff-4b64-b3a0-f24df72d6c64": {
    "asset": 1561096266801,
    "meta": 1561096269376,
    "relativePath": "Boss_Enemy_Attack\\attack4\\tile003.png"
  },
  "791ce310-ebad-471e-8917-3b489e0bedc3": {
    "asset": 1561096266800,
    "meta": 1561096269384,
    "relativePath": "Boss_Enemy_Attack\\attack4\\tile002.png"
  },
  "89f026e8-bc8c-46cc-ae30-b27d80716712": {
    "asset": 1561096266802,
    "meta": 1561096269400,
    "relativePath": "Boss_Enemy_Attack\\attack4\\tile004.png"
  },
  "c0bd078f-e0fa-44f7-b4c3-b6b1db1d3c71": {
    "asset": 1561096266803,
    "meta": 1561096269408,
    "relativePath": "Boss_Enemy_Attack\\attack4\\tile005.png"
  },
  "982ac97b-7e82-4708-a206-a32a1dd54971": {
    "asset": 1561096266805,
    "meta": 1561096269424,
    "relativePath": "Boss_Enemy_Attack\\attack4\\tile007.png"
  },
  "70906c05-2364-4aee-a9ff-576e433742d4": {
    "asset": 1561096266804,
    "meta": 1561096269432,
    "relativePath": "Boss_Enemy_Attack\\attack4\\tile006.png"
  },
  "0b66884a-3226-42fd-99c1-a0a04e70061c": {
    "asset": 1561096266805,
    "meta": 1561096269452,
    "relativePath": "Boss_Enemy_Attack\\attack4\\tile008.png"
  },
  "5cd47a18-6964-42c6-89ae-2fc1bb8b4f75": {
    "asset": 1561096266807,
    "meta": 1561096269460,
    "relativePath": "Boss_Enemy_Attack\\attack4\\tile009.png"
  },
  "82cc1ad9-588d-4bfb-844e-8eec3d8574b9": {
    "asset": 1561096266809,
    "meta": 1561096269477,
    "relativePath": "Boss_Enemy_Attack\\attack4\\tile010.png"
  },
  "f10e9f93-7c5f-478c-91ed-692ac3f4f1ee": {
    "asset": 1561096266808,
    "meta": 1561096269484,
    "relativePath": "Boss_Enemy_Attack\\attack4\\tile011.png"
  },
  "640c935c-7789-4080-a4f6-093a8239c8f0": {
    "asset": 1561096266812,
    "meta": 1561096269507,
    "relativePath": "Boss_Enemy_Attack\\attack4\\tile013.png"
  },
  "9a60bd33-3c52-47e5-8874-d024cd5f7283": {
    "asset": 1561096266812,
    "meta": 1561096269515,
    "relativePath": "Boss_Enemy_Attack\\attack4\\tile012.png"
  },
  "82af437e-57b4-441c-a514-5256ed5aaf70": {
    "asset": 1561096267119,
    "meta": 1561096266532,
    "relativePath": "Boss_Enemy_Attack\\boss1"
  },
  "88170541-b83f-4b4d-b98f-1b625ad87d55": {
    "asset": 1561096266662,
    "meta": 1561096266533,
    "relativePath": "Boss_Enemy_Attack\\boss1_move"
  },
  "4026aa66-4628-4bf8-bc96-995d769917f4": {
    "asset": 1561096266961,
    "meta": 1561096266851,
    "relativePath": "Boss_Enemy_Attack\\boss1_move\\anim"
  },
  "0554ed2c-7fe0-494c-a856-62ea0d72145b": {
    "asset": 1561096267003,
    "meta": 1561096269522,
    "relativePath": "Boss_Enemy_Attack\\boss1_move\\anim\\boss_move.anim"
  },
  "f8150cf2-df99-423e-937a-e4faff21970f": {
    "asset": 1561096266848,
    "meta": 1561096269539,
    "relativePath": "Boss_Enemy_Attack\\boss1_move\\tile000.png"
  },
  "3a2bc2fb-5404-4319-b596-74ff4babd299": {
    "asset": 1561096266849,
    "meta": 1561096269546,
    "relativePath": "Boss_Enemy_Attack\\boss1_move\\tile001.png"
  },
  "9014db43-ac59-49d0-a5df-120b31539da2": {
    "asset": 1561096266850,
    "meta": 1561096269571,
    "relativePath": "Boss_Enemy_Attack\\boss1_move\\tile002.png"
  },
  "69b96329-a5d9-4e2b-86b9-1892ed0b2156": {
    "asset": 1561096266852,
    "meta": 1561096269575,
    "relativePath": "Boss_Enemy_Attack\\boss1_move\\tile003.png"
  },
  "a1f81bf2-50c6-4c23-998e-3bde5a3aed09": {
    "asset": 1561096266853,
    "meta": 1561096269593,
    "relativePath": "Boss_Enemy_Attack\\boss1_move\\tile005.png"
  },
  "8f5e09dd-74b8-4136-9545-aea2382ac877": {
    "asset": 1561096266852,
    "meta": 1561096269601,
    "relativePath": "Boss_Enemy_Attack\\boss1_move\\tile004.png"
  },
  "b7e73b74-0e7b-4812-a47c-210f27c27992": {
    "asset": 1561096266953,
    "meta": 1561096266830,
    "relativePath": "Boss_Enemy_Attack\\boss1\\anim"
  },
  "04f2298d-48d8-4b5d-98fc-3c459dcda6d2": {
    "asset": 1561096266999,
    "meta": 1561096269609,
    "relativePath": "Boss_Enemy_Attack\\boss1\\anim\\boss.anim"
  },
  "1bce5a5a-9823-4fed-bdf8-c644b59919bb": {
    "asset": 1561096266955,
    "meta": 1561096266835,
    "relativePath": "Boss_Enemy_Attack\\boss1\\prefab"
  },
  "46edfe58-5372-48a8-980a-77dcedc086cc": {
    "asset": 1561096267000,
    "meta": 1561096269621,
    "relativePath": "Boss_Enemy_Attack\\boss1\\prefab\\boss.prefab"
  },
  "d309986e-d6cc-4d56-860b-766a9aed86b3": {
    "asset": 1561096266854,
    "meta": 1561096269635,
    "relativePath": "Boss_Enemy_Attack\\boss1_move\\tile006.png"
  },
  "2b5dc826-d09f-48cb-b7cc-ba0cca954e4a": {
    "asset": 1561096266836,
    "meta": 1561096269638,
    "relativePath": "Boss_Enemy_Attack\\boss1\\Thumbs.db"
  },
  "84483739-66a3-445c-bc48-f7bf23e56568": {
    "asset": 1561096266831,
    "meta": 1561096269655,
    "relativePath": "Boss_Enemy_Attack\\boss1\\tile001.png"
  },
  "c03506a2-4b28-4334-a4a2-2fbcf10df139": {
    "asset": 1561096266829,
    "meta": 1561096269663,
    "relativePath": "Boss_Enemy_Attack\\boss1\\tile000.png"
  },
  "2b6ae861-c487-4ea0-bf25-2727f1802442": {
    "asset": 1561096266836,
    "meta": 1561096269681,
    "relativePath": "Boss_Enemy_Attack\\boss1\\tile002.png"
  },
  "8f207172-07f6-499c-8e07-9955697b474b": {
    "asset": 1561096266837,
    "meta": 1561096269689,
    "relativePath": "Boss_Enemy_Attack\\boss1\\tile003.png"
  },
  "080ce64f-3010-4b83-8617-5970bf89c4d1": {
    "asset": 1561096266837,
    "meta": 1561096269706,
    "relativePath": "Boss_Enemy_Attack\\boss1\\tile004.png"
  },
  "0306c147-d130-4252-98f0-836af021eb0b": {
    "asset": 1561096266838,
    "meta": 1561096269713,
    "relativePath": "Boss_Enemy_Attack\\boss1\\tile005.png"
  },
  "46a2a5fb-8539-4174-a389-d2a43149fdca": {
    "asset": 1561096266653,
    "meta": 1561096266533,
    "relativePath": "Boss_Enemy_Attack\\boss2"
  },
  "d7b69cbc-5b49-4058-98f7-0f973d44126f": {
    "asset": 1561096266957,
    "meta": 1561096266840,
    "relativePath": "Boss_Enemy_Attack\\boss2\\anim"
  },
  "7e6b5285-36ed-4553-88d9-af67e7b2670a": {
    "asset": 1561096266960,
    "meta": 1561096266843,
    "relativePath": "Boss_Enemy_Attack\\boss2\\prefab"
  },
  "28482b6e-6bc3-49df-b2b2-5976504ef7e6": {
    "asset": 1561096267001,
    "meta": 1561096269720,
    "relativePath": "Boss_Enemy_Attack\\boss2\\anim\\boss2.anim"
  },
  "c9fd0821-8948-4215-a587-46874f35ba2b": {
    "asset": 1561096267002,
    "meta": 1561096269728,
    "relativePath": "Boss_Enemy_Attack\\boss2\\prefab\\boss2.prefab"
  },
  "2604ea2e-52ca-4679-a525-eac33426640e": {
    "asset": 1561096266841,
    "meta": 1561096269747,
    "relativePath": "Boss_Enemy_Attack\\boss2\\tile001.png"
  },
  "178410db-f97d-4df6-b81f-6f89ed16f63a": {
    "asset": 1561096266841,
    "meta": 1561096269754,
    "relativePath": "Boss_Enemy_Attack\\boss2\\tile000.png"
  },
  "95c43621-3edc-475e-89c0-70900db4b919": {
    "asset": 1561096266844,
    "meta": 1561096269774,
    "relativePath": "Boss_Enemy_Attack\\boss2\\tile002.png"
  },
  "edc33e55-72b2-42a0-ae85-e7183e3387b7": {
    "asset": 1561096266842,
    "meta": 1561096269782,
    "relativePath": "Boss_Enemy_Attack\\boss2\\tile003.png"
  },
  "c9783526-c139-4344-b8ff-885482e189af": {
    "asset": 1561096266847,
    "meta": 1561096269803,
    "relativePath": "Boss_Enemy_Attack\\boss2\\tile005.png"
  },
  "498430b5-21df-469d-9fb0-d003a8fc5b2d": {
    "asset": 1561096266843,
    "meta": 1561096269811,
    "relativePath": "Boss_Enemy_Attack\\boss2\\tile004.png"
  },
  "06d5a446-23c7-4a29-8ef8-9cfb929886b2": {
    "asset": 1561096266672,
    "meta": 1561096266534,
    "relativePath": "Boss_Enemy_Attack\\boss3"
  },
  "9bd1ff9d-2b70-4867-a0f6-bad55c1dec7d": {
    "asset": 1561096266680,
    "meta": 1561096266535,
    "relativePath": "Boss_Enemy_Attack\\boss3_move"
  },
  "9afa2301-e57b-4b7d-ab66-f100d2db8a60": {
    "asset": 1561096266969,
    "meta": 1561096266865,
    "relativePath": "Boss_Enemy_Attack\\boss3_move\\anim"
  },
  "21b2ee61-fe7c-4a29-9e5c-1b3817757751": {
    "asset": 1561096267006,
    "meta": 1561096269819,
    "relativePath": "Boss_Enemy_Attack\\boss3_move\\anim\\boss3_move.anim"
  },
  "7bbfffac-2c36-4172-ba6e-80df0a668efa": {
    "asset": 1561096266863,
    "meta": 1561096269836,
    "relativePath": "Boss_Enemy_Attack\\boss3_move\\tile000.png"
  },
  "3a55869f-aac3-438e-86e6-cf54e70a9db9": {
    "asset": 1561096266864,
    "meta": 1561096269843,
    "relativePath": "Boss_Enemy_Attack\\boss3_move\\tile001.png"
  },
  "8c06a6bc-1435-4026-8299-eb8fad4b9a6a": {
    "asset": 1561096266865,
    "meta": 1561096269860,
    "relativePath": "Boss_Enemy_Attack\\boss3_move\\tile002.png"
  },
  "b42e55eb-1295-4b5b-9575-52ca6c2808c0": {
    "asset": 1561096266867,
    "meta": 1561096269867,
    "relativePath": "Boss_Enemy_Attack\\boss3_move\\tile003.png"
  },
  "67f16d12-9a67-412e-a55d-c97efd042a93": {
    "asset": 1561096266964,
    "meta": 1561096266857,
    "relativePath": "Boss_Enemy_Attack\\boss3\\anim"
  },
  "fd3c13f7-4c44-4059-b893-9e1af812bfe7": {
    "asset": 1561096267004,
    "meta": 1561096269877,
    "relativePath": "Boss_Enemy_Attack\\boss3\\anim\\boss3.anim"
  },
  "4b67623c-ef92-4ca2-b2d4-217e647b5024": {
    "asset": 1561096266965,
    "meta": 1561096266858,
    "relativePath": "Boss_Enemy_Attack\\boss3\\prefab"
  },
  "2c31b042-0395-4234-a13d-e3a86e14a6e2": {
    "asset": 1561096267005,
    "meta": 1561096269885,
    "relativePath": "Boss_Enemy_Attack\\boss3\\prefab\\boss3.prefab"
  },
  "46e8a2ab-2041-4747-bc99-5c4ee6847a71": {
    "asset": 1561096266869,
    "meta": 1561096269901,
    "relativePath": "Boss_Enemy_Attack\\boss3_move\\tile004.png"
  },
  "0c834064-dbfa-4645-bd66-30a16becb318": {
    "asset": 1561096266855,
    "meta": 1561096269908,
    "relativePath": "Boss_Enemy_Attack\\boss3\\tile000.png"
  },
  "8fdd4244-9133-406a-8fa6-0990afda3ef1": {
    "asset": 1561096266858,
    "meta": 1561096269926,
    "relativePath": "Boss_Enemy_Attack\\boss3\\tile001.png"
  },
  "c2a2ab75-09fd-4a6c-944d-158caeefbe9b": {
    "asset": 1561096266859,
    "meta": 1561096269933,
    "relativePath": "Boss_Enemy_Attack\\boss3\\tile002.png"
  },
  "8fc7a285-a686-4790-abc3-85743aaf8cae": {
    "asset": 1561096266860,
    "meta": 1561096269951,
    "relativePath": "Boss_Enemy_Attack\\boss3\\tile003.png"
  },
  "2585f0eb-fe0e-4fa2-a68e-488365ec79f3": {
    "asset": 1561096266861,
    "meta": 1561096269958,
    "relativePath": "Boss_Enemy_Attack\\boss3\\tile004.png"
  },
  "7f5255d3-78b1-4b4c-874e-fdfc2b5a5199": {
    "asset": 1561096267140,
    "meta": 1561096266536,
    "relativePath": "Boss_Enemy_Attack\\boss4"
  },
  "2d9d71c2-617b-4ea4-a8c0-d357d1c95e0d": {
    "asset": 1561096266969,
    "meta": 1561096266871,
    "relativePath": "Boss_Enemy_Attack\\boss4\\anim"
  },
  "bc8dc74c-fe32-44cc-8de2-ec14eeb614e3": {
    "asset": 1561096267006,
    "meta": 1561096269965,
    "relativePath": "Boss_Enemy_Attack\\boss4\\anim\\boss4.anim"
  },
  "57e82655-bb25-4fc6-92e6-6f17d063650a": {
    "asset": 1561096266972,
    "meta": 1561096266874,
    "relativePath": "Boss_Enemy_Attack\\boss4\\prefab"
  },
  "5dcfd436-0d92-4763-a9a1-c46282c33be1": {
    "asset": 1561096267009,
    "meta": 1561096269973,
    "relativePath": "Boss_Enemy_Attack\\boss4\\prefab\\boss4.prefab"
  },
  "db65ea7b-a145-42d0-bc82-d5c6796efdba": {
    "asset": 1561096266862,
    "meta": 1561096269986,
    "relativePath": "Boss_Enemy_Attack\\boss3\\tile005.png"
  },
  "609d07fe-a06b-4f0b-9888-821787ab1f7b": {
    "asset": 1561096266874,
    "meta": 1561096269991,
    "relativePath": "Boss_Enemy_Attack\\boss4\\Thumbs.db"
  },
  "19b396c8-7681-454e-8309-089a58284f6c": {
    "asset": 1561096266871,
    "meta": 1561096270009,
    "relativePath": "Boss_Enemy_Attack\\boss4\\tile000.png"
  },
  "2c750065-1eec-4a10-8e3f-0eef6f5f0c85": {
    "asset": 1561096266872,
    "meta": 1561096270016,
    "relativePath": "Boss_Enemy_Attack\\boss4\\tile001.png"
  },
  "5967f028-8a43-43dc-84c6-06f740255c13": {
    "asset": 1561096266875,
    "meta": 1561096270035,
    "relativePath": "Boss_Enemy_Attack\\boss4\\tile003.png"
  },
  "6e7aef98-f004-4b34-8c48-2c6df7066e0d": {
    "asset": 1561096266873,
    "meta": 1561096270042,
    "relativePath": "Boss_Enemy_Attack\\boss4\\tile002.png"
  },
  "745db0d0-966f-4d61-9ffd-5d24c5238729": {
    "asset": 1561096266877,
    "meta": 1561096270060,
    "relativePath": "Boss_Enemy_Attack\\boss4\\tile005.png"
  },
  "eaa8b43e-f628-4db5-aa3d-29e8d568bc87": {
    "asset": 1561096266875,
    "meta": 1561096270068,
    "relativePath": "Boss_Enemy_Attack\\boss4\\tile004.png"
  },
  "9fef1b7e-637b-465d-a4c0-ea61eee1ac4f": {
    "asset": 1561096266877,
    "meta": 1561096270085,
    "relativePath": "Boss_Enemy_Attack\\boss4\\tile006.png"
  },
  "a9f4e1c8-3f97-4eba-b3a8-17fcd5939776": {
    "asset": 1561096266878,
    "meta": 1561096270092,
    "relativePath": "Boss_Enemy_Attack\\boss4\\tile007.png"
  },
  "31039de1-d6f7-45a1-b67b-9194ef2935a7": {
    "asset": 1561096266879,
    "meta": 1561096270111,
    "relativePath": "Boss_Enemy_Attack\\boss4\\tile008.png"
  },
  "d3f07208-4eb4-49db-9cad-6760280e1521": {
    "asset": 1561096266880,
    "meta": 1561096270118,
    "relativePath": "Boss_Enemy_Attack\\boss4\\tile009.png"
  },
  "5d9cd0ed-148d-4311-a882-5dd4dab4004e": {
    "asset": 1561096266881,
    "meta": 1561096270136,
    "relativePath": "Boss_Enemy_Attack\\boss4\\tile010.png"
  },
  "d1685e91-0cfe-4f16-b6fc-cb75322b0cd3": {
    "asset": 1561096266884,
    "meta": 1561096270143,
    "relativePath": "Boss_Enemy_Attack\\boss4\\tile011.png"
  },
  "4bd3c4e1-99b7-40c2-8f8f-989bcd5dfe4a": {
    "asset": 1561096266713,
    "meta": 1561096266536,
    "relativePath": "Boss_Enemy_Attack\\enemy"
  },
  "d2e26ec5-1b6c-4cdc-9fd2-876b23f6351d": {
    "asset": 1561096266972,
    "meta": 1561096266885,
    "relativePath": "Boss_Enemy_Attack\\enemy\\anim"
  },
  "0202fe5a-605a-4aec-88c9-46620211595d": {
    "asset": 1561096266976,
    "meta": 1561096266886,
    "relativePath": "Boss_Enemy_Attack\\enemy\\prefab"
  },
  "ef1c26cc-db06-4e55-84d2-2834f270af9a": {
    "asset": 1561096267010,
    "meta": 1561096270150,
    "relativePath": "Boss_Enemy_Attack\\enemy\\anim\\enemy.anim"
  },
  "2eed79af-1c36-48ad-b4da-de4af043dde3": {
    "asset": 1561096267008,
    "meta": 1561096270157,
    "relativePath": "Boss_Enemy_Attack\\enemy\\prefab\\enemy.prefab"
  },
  "693fa842-f6ff-4b56-9fa3-11d0bbd98a9d": {
    "asset": 1561096266885,
    "meta": 1561096270176,
    "relativePath": "Boss_Enemy_Attack\\enemy\\tile000.png"
  },
  "c14722b5-9ad2-41a6-a41c-ead3649c65d5": {
    "asset": 1561096266886,
    "meta": 1561096270183,
    "relativePath": "Boss_Enemy_Attack\\enemy\\tile001.png"
  },
  "419ad9ef-c93b-4373-9143-4ea08d872f67": {
    "asset": 1561096266888,
    "meta": 1561096270199,
    "relativePath": "Boss_Enemy_Attack\\enemy\\tile003.png"
  },
  "88968f0f-0b35-4aed-89e4-70e089a3b79e": {
    "asset": 1561096266887,
    "meta": 1561096270206,
    "relativePath": "Boss_Enemy_Attack\\enemy\\tile002.png"
  },
  "e565e3e4-20eb-4196-bf69-821eff52875e": {
    "asset": 1561096266892,
    "meta": 1561096270222,
    "relativePath": "Boss_Enemy_Attack\\enemy\\tile005.png"
  },
  "eaf63b2f-7eaa-4fdc-8d7b-0f5f21212f79": {
    "asset": 1561096266888,
    "meta": 1561096270229,
    "relativePath": "Boss_Enemy_Attack\\enemy\\tile004.png"
  },
  "de98f5e2-3b3e-4222-ba80-75003cef058f": {
    "asset": 1561096266892,
    "meta": 1561096270245,
    "relativePath": "Boss_Enemy_Attack\\enemy\\tile007.png"
  },
  "4410d356-ac1d-43df-b3f0-9853150b627c": {
    "asset": 1561096266891,
    "meta": 1561096270253,
    "relativePath": "Boss_Enemy_Attack\\enemy\\tile006.png"
  },
  "1a1fac4d-04b4-4d7e-b811-b1b6970296f5": {
    "asset": 1561096266893,
    "meta": 1561096270268,
    "relativePath": "Boss_Enemy_Attack\\enemy\\tile008.png"
  },
  "12b8e790-af7d-40b7-8d2a-1869855e10c9": {
    "asset": 1561096266894,
    "meta": 1561096270275,
    "relativePath": "Boss_Enemy_Attack\\enemy\\tile009.png"
  },
  "714c2fc4-afa5-4081-a0f0-f052811fe26a": {
    "asset": 1561096266726,
    "meta": 1561096266536,
    "relativePath": "Boss_Enemy_Attack\\enemy2"
  },
  "e43d4234-2881-4ac2-b636-d9bb71011358": {
    "asset": 1561096266976,
    "meta": 1561096266897,
    "relativePath": "Boss_Enemy_Attack\\enemy2\\anim"
  },
  "5d0c417f-e470-4b94-99a0-ac7f33b597ed": {
    "asset": 1561096266980,
    "meta": 1561096266899,
    "relativePath": "Boss_Enemy_Attack\\enemy2\\prefab"
  },
  "0ef3567e-47d5-4140-8e08-d9f09d36c1a7": {
    "asset": 1561096267011,
    "meta": 1561096270282,
    "relativePath": "Boss_Enemy_Attack\\enemy2\\anim\\enemy2.anim"
  },
  "c0cb5001-55dd-4fe8-b84e-8e1d542afadf": {
    "asset": 1561096267013,
    "meta": 1561096270290,
    "relativePath": "Boss_Enemy_Attack\\enemy2\\prefab\\enemy2.prefab"
  },
  "75ca311c-3436-422e-b9c1-c23b23bccc40": {
    "asset": 1561096266897,
    "meta": 1561096270308,
    "relativePath": "Boss_Enemy_Attack\\enemy2\\tile001.png"
  },
  "54662204-bfb7-458c-a9c7-82130ae38365": {
    "asset": 1561096266896,
    "meta": 1561096270316,
    "relativePath": "Boss_Enemy_Attack\\enemy2\\tile000.png"
  },
  "4229c210-ad13-488c-9525-23f12d66dfa1": {
    "asset": 1561096266898,
    "meta": 1561096270333,
    "relativePath": "Boss_Enemy_Attack\\enemy2\\tile002.png"
  },
  "13a157f1-bedc-44dd-8569-d511db64220d": {
    "asset": 1561096266899,
    "meta": 1561096270341,
    "relativePath": "Boss_Enemy_Attack\\enemy2\\tile003.png"
  },
  "819222ad-1a1f-403c-9e20-4faf2640a38b": {
    "asset": 1561096266900,
    "meta": 1561096270357,
    "relativePath": "Boss_Enemy_Attack\\enemy2\\tile004.png"
  },
  "c20980b9-a7e2-45c6-bc00-11bb15445d44": {
    "asset": 1561096266902,
    "meta": 1561096270364,
    "relativePath": "Boss_Enemy_Attack\\enemy2\\tile005.png"
  },
  "89536fe3-becd-4998-8210-f3efbfc1e34a": {
    "asset": 1561096266904,
    "meta": 1561096270382,
    "relativePath": "Boss_Enemy_Attack\\enemy2\\tile007.png"
  },
  "82df8254-5942-4365-8874-bef1dfba7881": {
    "asset": 1561096266904,
    "meta": 1561096270389,
    "relativePath": "Boss_Enemy_Attack\\enemy2\\tile006.png"
  },
  "74475c89-2acc-4662-ac77-0c4f8ade1a58": {
    "asset": 1561096267166,
    "meta": 1561096266540,
    "relativePath": "Boss_Enemy_Attack\\enemy3"
  },
  "a114aeb0-8832-47e8-bf11-ac593fe0e978": {
    "asset": 1561096266980,
    "meta": 1561096266907,
    "relativePath": "Boss_Enemy_Attack\\enemy3\\anim"
  },
  "3b30942c-d5bf-491f-a5c6-5a6b47ac3f24": {
    "asset": 1561096266984,
    "meta": 1561096266911,
    "relativePath": "Boss_Enemy_Attack\\enemy3\\prefab"
  },
  "7997a58a-ec87-4168-87e2-cc97f6fba257": {
    "asset": 1561096267012,
    "meta": 1561096270403,
    "relativePath": "Boss_Enemy_Attack\\enemy3\\anim\\enemy3.anim"
  },
  "0d79d33e-ebd7-437d-ae04-768cda1c879d": {
    "asset": 1561096267014,
    "meta": 1561096270412,
    "relativePath": "Boss_Enemy_Attack\\enemy3\\prefab\\enemy3.prefab"
  },
  "450df6b9-ff01-4466-906f-d53e9a766c3a": {
    "asset": 1561096266909,
    "meta": 1561096270424,
    "relativePath": "Boss_Enemy_Attack\\enemy3\\Thumbs.db"
  },
  "8a91b6c2-890a-41f1-a9ea-9687a159b713": {
    "asset": 1561096266906,
    "meta": 1561096270432,
    "relativePath": "Boss_Enemy_Attack\\enemy3\\tile000.png"
  },
  "8c4bf44d-ef05-486e-a410-5cb186e672dd": {
    "asset": 1561096266908,
    "meta": 1561096270448,
    "relativePath": "Boss_Enemy_Attack\\enemy3\\tile001.png"
  },
  "cb7d6527-ac48-4c0b-be1a-2e7e7c6cac73": {
    "asset": 1561096266910,
    "meta": 1561096270455,
    "relativePath": "Boss_Enemy_Attack\\enemy3\\tile002.png"
  },
  "7950bef7-005a-4644-926d-4aa423d9c34b": {
    "asset": 1561096266743,
    "meta": 1561096266742,
    "relativePath": "Boss_Enemy_Attack\\enemy4"
  },
  "fe1e938c-c302-4eda-bfc7-acc79cd2a9e6": {
    "asset": 1561096266985,
    "meta": 1561096266928,
    "relativePath": "Boss_Enemy_Attack\\enemy4\\anim"
  },
  "8967c6ef-fa7a-4643-bf16-637e5c31d015": {
    "asset": 1561096267016,
    "meta": 1561096270462,
    "relativePath": "Boss_Enemy_Attack\\enemy4\\anim\\enemy4.anim"
  },
  "08b490f7-9e0b-4f65-851c-049e7c637c32": {
    "asset": 1561096266988,
    "meta": 1561096266927,
    "relativePath": "Boss_Enemy_Attack\\enemy4\\prefab"
  },
  "394a3209-4734-471a-9d38-40d03dfd55ff": {
    "asset": 1561096267018,
    "meta": 1561096270470,
    "relativePath": "Boss_Enemy_Attack\\enemy4\\prefab\\enemy4.prefab"
  },
  "3b1a1adc-8e9e-4cb4-813c-169eac521389": {
    "asset": 1561096266912,
    "meta": 1561096270485,
    "relativePath": "Boss_Enemy_Attack\\enemy3\\tile003.png"
  },
  "b65a6389-fef8-42bd-8f98-81f5915f7a2d": {
    "asset": 1561096266926,
    "meta": 1561096270493,
    "relativePath": "Boss_Enemy_Attack\\enemy4\\tile000.png"
  },
  "315acffe-3650-49ea-a171-d52ddafa26a7": {
    "asset": 1561096266929,
    "meta": 1561096270511,
    "relativePath": "Boss_Enemy_Attack\\enemy4\\tile001.png"
  },
  "5e8ece16-57f5-4135-870d-41c047b85f34": {
    "asset": 1561096266929,
    "meta": 1561096270519,
    "relativePath": "Boss_Enemy_Attack\\enemy4\\tile002.png"
  },
  "698de1c2-1c18-4e42-9b3d-29ab1a41880e": {
    "asset": 1561096266933,
    "meta": 1561096270535,
    "relativePath": "Boss_Enemy_Attack\\enemy4\\tile003.png"
  },
  "286dfe91-0f6c-4245-97d1-41df78ddf099": {
    "asset": 1561096451759,
    "meta": 1561096451750,
    "relativePath": "img\\knight_2"
  },
  "57cf4d20-53f6-426b-bded-6a27ca576ba2": {
    "asset": 1561096451737,
    "meta": 1561096451797,
    "relativePath": "img\\knight_2\\knight_2(1).png"
  },
  "f5e985e5-40a4-4f29-8087-17d685c4e3b4": {
    "asset": 1561096451737,
    "meta": 1561096451805,
    "relativePath": "img\\knight_2\\knight_2(2).png"
  },
  "38185320-e14d-44f7-a440-544de3d3b264": {
    "asset": 1561096451741,
    "meta": 1561096451814,
    "relativePath": "img\\knight_2\\Thumbs.db"
  },
  "5dea9b1e-7364-42ee-9765-7ef112152815": {
    "asset": 1561096503558,
    "meta": 1561096503549,
    "relativePath": "img\\anchor"
  },
  "8b561782-e394-41eb-b0e9-610f41abc788": {
    "asset": 1561096503528,
    "meta": 1561096503587,
    "relativePath": "img\\anchor\\anchor(2).png"
  },
  "5d3793c0-8873-4cfa-b6a0-b8eb382c8870": {
    "asset": 1561096503527,
    "meta": 1561096503597,
    "relativePath": "img\\anchor\\anchor(1).png"
  },
  "4bea3881-a39e-4559-86b8-79b266166f43": {
    "asset": 1561096503544,
    "meta": 1561096503609,
    "relativePath": "img\\anchor\\Thumbs.db"
  },
  "19ffb9a8-eff8-4511-81dc-99b3619a79b5": {
    "asset": 1561097554721,
    "meta": 1561097554741,
    "relativePath": "animation\\archer_walk.anim"
  },
  "94f5ce2f-46b5-4078-b6f9-4f19a585631b": {
    "asset": 1561097661161,
    "meta": 1561097661173,
    "relativePath": "Prefab\\Archer.prefab"
  },
  "124eab21-d6b3-4918-af10-856ffbca1890": {
    "asset": 1561097879094,
    "meta": 1561097897855,
    "relativePath": "img\\weapon\\shield2.png"
  },
  "e59bd49e-78bc-4e25-99b7-540ae42d79a6": {
    "asset": 1561097883682,
    "meta": 1561097909633,
    "relativePath": "img\\weapon\\staff2.png"
  },
  "fc2efdde-5eb8-468d-8b2b-88bfd8705071": {
    "asset": 1561097883681,
    "meta": 1561097904324,
    "relativePath": "img\\weapon\\staff1.png"
  },
  "1f13b615-67a8-4305-b5a2-5a673e8a2fd1": {
    "asset": 1561098227920,
    "meta": 1561098227912,
    "relativePath": "img\\knight"
  },
  "06ed8cc6-867f-4021-9455-6566289ec4ad": {
    "asset": 1561098227891,
    "meta": 1561098227957,
    "relativePath": "img\\knight\\knight_1.png"
  },
  "35ee891c-e933-4a8e-90dc-e30ea2c05eac": {
    "asset": 1561098227890,
    "meta": 1561098227967,
    "relativePath": "img\\knight\\knight_2.png"
  },
  "3c196559-88b3-4080-ac9a-dfa42772fa26": {
    "asset": 1561098227903,
    "meta": 1561098227979,
    "relativePath": "img\\knight\\Thumbs.db"
  },
  "0924f65a-af09-458b-a877-ca6e0abe12ff": {
    "asset": 1561098617365,
    "meta": 1561098618519,
    "relativePath": "img\\weapon\\shield1.png"
  },
  "ce300bb0-c7de-406a-a8e9-107d510bd30c": {
    "asset": 1561098684021,
    "meta": 1561098684083,
    "relativePath": "js\\NewScript.js"
  },
  "2061643c-69ba-4d61-b545-6e51369ed65c": {
    "asset": 1561098809518,
    "meta": 1561098796918,
    "relativePath": "js\\character"
  },
  "1c9ca602-6b58-4c80-90cf-8e547bbea590": {
    "asset": 1561099765368,
    "meta": 1561099765360,
    "relativePath": "img\\magic"
  },
  "4f199bc8-10cc-4a4e-8068-97b558a0d52b": {
    "asset": 1561099765341,
    "meta": 1561099765409,
    "relativePath": "img\\magic\\magic_2.png"
  },
  "72731f49-21e0-42d2-8982-98411599b58d": {
    "asset": 1561099765340,
    "meta": 1561099765418,
    "relativePath": "img\\magic\\magic_1.png"
  },
  "53857887-700c-420d-9132-9881edccc35b": {
    "asset": 1561099765353,
    "meta": 1561099765429,
    "relativePath": "img\\magic\\Thumbs.db"
  },
  "8ecc0637-be54-4365-ad24-26eb1fcf048c": {
    "asset": 1561100015707,
    "meta": 1561100015723,
    "relativePath": "animation\\Yusha_walk.anim"
  },
  "61f17067-9715-474a-8576-d5671afa253a": {
    "asset": 1561128796493,
    "meta": 1561128796514,
    "relativePath": "Level3.fire"
  },
  "6d213926-8658-476d-b42e-6fad44bd0bf3": {
    "asset": 1561100278497,
    "meta": 1561100279919,
    "relativePath": "js\\animation\\prototype_walk.js"
  },
  "ea97da53-96bc-4434-9ea2-e62552816fe2": {
    "asset": 1561128805985,
    "meta": 1561128806010,
    "relativePath": "Level4.fire"
  },
  "0e610e67-4838-46cb-90b7-444222b356cd": {
    "asset": 1561101608813,
    "meta": 1561101591896,
    "relativePath": "js\\Chest"
  },
  "e34c6635-ef13-464e-a0a1-64896e343904": {
    "asset": 1561106771294,
    "meta": 1561106627656,
    "relativePath": "Prefab\\character"
  },
  "6f60397c-a877-478a-8288-659649b8b754": {
    "asset": 1561106855183,
    "meta": 1561106820903,
    "relativePath": "animation\\character"
  },
  "6f01a8b2-0c73-4df0-b84d-862fcdf6b118": {
    "asset": 1561176512554,
    "meta": 1561176512564,
    "relativePath": "characters\\anchor\\anim\\anchor.anim"
  },
  "1f218d72-a690-4ab6-821e-923b1ea1d1b6": {
    "asset": 1561107081907,
    "meta": 1561107082045,
    "relativePath": "characters\\knight_2\\anim\\knight_2.anim"
  },
  "722c7add-4e1e-4ef8-a7db-e996d7f985b1": {
    "asset": 1561107081907,
    "meta": 1561107082153,
    "relativePath": "characters\\magic\\anim\\magic.anim"
  },
  "0ce73f21-9217-486d-a052-32c0359748f3": {
    "asset": 1561107081820,
    "meta": 1561107081936,
    "relativePath": "characters"
  },
  "1003c20e-d681-4deb-9193-42387cc8f28a": {
    "asset": 1561107081941,
    "meta": 1561107081826,
    "relativePath": "characters\\anchor"
  },
  "c4decb80-336a-491e-9e1f-ddc1f5ffb340": {
    "asset": 1561107081862,
    "meta": 1561107082011,
    "relativePath": "characters\\anchor\\anchor(1).png"
  },
  "4017e9ca-09df-4376-83ad-b032beedfdd6": {
    "asset": 1561107081862,
    "meta": 1561107082019,
    "relativePath": "characters\\anchor\\anchor(2).png"
  },
  "35d4af25-cfdc-4b7d-bcaa-b21f4b0518e5": {
    "asset": 1561128331582,
    "meta": 1561107081867,
    "relativePath": "characters\\anchor\\anim"
  },
  "8e48b06b-493f-4aea-897a-e7736b6f8568": {
    "asset": 1561182382074,
    "meta": 1561107081867,
    "relativePath": "characters\\anchor\\prefab"
  },
  "1f6fa862-822a-4371-9f8b-652e03789587": {
    "asset": 1561107081842,
    "meta": 1561107081824,
    "relativePath": "characters\\knight"
  },
  "53951ccd-b5e5-4c27-8663-32b4cae78e86": {
    "asset": 1561107081848,
    "meta": 1561107081829,
    "relativePath": "characters\\knight_2"
  },
  "90d1dd11-d84c-477a-9056-a520742405a9": {
    "asset": 1561107081877,
    "meta": 1561107081871,
    "relativePath": "characters\\knight_2\\anim"
  },
  "5499ee2a-7a52-474d-abc5-3217a8d0c5d5": {
    "asset": 1561107081866,
    "meta": 1561107082052,
    "relativePath": "characters\\anchor\\Thumbs.db"
  },
  "9d94a630-ff5a-40e6-99ad-bf383c38a54c": {
    "asset": 1561107081869,
    "meta": 1561107082077,
    "relativePath": "characters\\knight_2\\knight_2(1).png"
  },
  "f572cac8-6884-4cd7-a69e-9b58d77e544b": {
    "asset": 1561107081871,
    "meta": 1561107082085,
    "relativePath": "characters\\knight_2\\knight_2(2).png"
  },
  "639960c5-8fa3-4151-bd04-f8d70244b2e5": {
    "asset": 1561107081881,
    "meta": 1561107081871,
    "relativePath": "characters\\knight_2\\prefab"
  },
  "047a1234-52c6-4086-9f88-4c55b454f2bc": {
    "asset": 1561128101972,
    "meta": 1561107081869,
    "relativePath": "characters\\knight\\anim"
  },
  "16c8333b-9e16-4b1a-89da-e23c79de5880": {
    "asset": 1561188964962,
    "meta": 1561188965017,
    "relativePath": "characters\\knight_2\\prefab\\knight_2.prefab"
  },
  "84e952e9-856b-4f52-8592-9c5867d4327a": {
    "asset": 1561107081866,
    "meta": 1561107082124,
    "relativePath": "characters\\knight\\knight_1.png"
  },
  "b2bd7fc2-f6a2-4c9e-b409-478416c3dc03": {
    "asset": 1561107081868,
    "meta": 1561107082132,
    "relativePath": "characters\\knight\\knight_2.png"
  },
  "50305dc0-ba9d-4762-a8c0-9516492e2ba2": {
    "asset": 1561107081877,
    "meta": 1561107081871,
    "relativePath": "characters\\knight\\prefab"
  },
  "ffb6d4a5-f35f-478f-9545-fa9a79b08e5b": {
    "asset": 1561107081854,
    "meta": 1561107081859,
    "relativePath": "characters\\magic"
  },
  "3213f728-7e29-4f8f-ba16-2318811a27ca": {
    "asset": 1561128504402,
    "meta": 1561107081872,
    "relativePath": "characters\\magic\\anim"
  },
  "459be019-1e90-4658-8d7e-2d51d31b3e55": {
    "asset": 1561245497670,
    "meta": 1561245497693,
    "relativePath": "characters\\knight\\prefab\\knight_1.prefab"
  },
  "61b5292a-1897-484e-8994-e61cc0246780": {
    "asset": 1561107081873,
    "meta": 1561107082178,
    "relativePath": "characters\\magic\\magic_2.png"
  },
  "ec3acda4-1440-4d0d-8111-cfc10474f0ab": {
    "asset": 1561107081872,
    "meta": 1561107082188,
    "relativePath": "characters\\magic\\magic_1.png"
  },
  "82be4d4b-bf09-4059-9a55-30c065dadba1": {
    "asset": 1561107081882,
    "meta": 1561107081875,
    "relativePath": "characters\\magic\\prefab"
  },
  "1e171443-a7ed-42d6-bbd7-9acb6f9c9f75": {
    "asset": 1561107081858,
    "meta": 1561107081860,
    "relativePath": "characters\\zombie"
  },
  "ae1dd774-28f6-4922-a437-5b3f2d28649c": {
    "asset": 1561107081961,
    "meta": 1561107081875,
    "relativePath": "characters\\zombie\\attack"
  },
  "11997d91-886e-470f-a6d3-21e1475ee3ce": {
    "asset": 1561192666314,
    "meta": 1561192666331,
    "relativePath": "characters\\magic\\prefab\\magic.prefab"
  },
  "926f127d-f310-4047-9ef9-91117d2a15eb": {
    "asset": 1561107081914,
    "meta": 1561107082224,
    "relativePath": "characters\\zombie\\attack\\attack_0.png"
  },
  "6bb40370-dbbb-432c-a6f8-083edc7f9fdd": {
    "asset": 1561107081916,
    "meta": 1561107082233,
    "relativePath": "characters\\zombie\\attack\\attack_1.png"
  },
  "9f06e1de-4407-49c9-ad5d-f4ed36cc5195": {
    "asset": 1561107081915,
    "meta": 1561107082260,
    "relativePath": "characters\\zombie\\attack\\attack_2.png"
  },
  "9533e397-c2b9-40ee-88e0-d83973c97441": {
    "asset": 1561107081916,
    "meta": 1561107082269,
    "relativePath": "characters\\zombie\\attack\\attack_3.png"
  },
  "c222ab0b-699d-458e-b37e-96273feb9eff": {
    "asset": 1561107081966,
    "meta": 1561107081898,
    "relativePath": "characters\\zombie\\walk"
  },
  "1c20dc0f-b43c-41a4-8fa4-eae8e8030a42": {
    "asset": 1561107081923,
    "meta": 1561107082276,
    "relativePath": "characters\\zombie\\attack\\Thumbs.db"
  },
  "56cdb005-9b38-4b4b-9f6a-f7223c1d3036": {
    "asset": 1561107081911,
    "meta": 1561107082301,
    "relativePath": "characters\\zombie\\walk\\zombie(1).png"
  },
  "046c84e8-4a88-4bdd-b81b-ff5fb519e531": {
    "asset": 1561107081912,
    "meta": 1561107082307,
    "relativePath": "characters\\zombie\\walk\\Thumbs.db"
  },
  "1f33469b-2aa6-4234-83d1-f79948055f1f": {
    "asset": 1561107081913,
    "meta": 1561107082332,
    "relativePath": "characters\\zombie\\walk\\zombie(2).png"
  },
  "66ee9408-9659-4589-a839-9d014cd50575": {
    "asset": 1561107081918,
    "meta": 1561107082340,
    "relativePath": "characters\\zombie\\walk\\zombie(3).png"
  },
  "d428315c-84da-4139-ab7d-ae21b43f1ea4": {
    "asset": 1561109210876,
    "meta": 1561109212932,
    "relativePath": "js\\character\\changeWeapon.js"
  },
  "c7d342ad-6c3f-48dc-86b9-2e2284e22eb8": {
    "asset": 1561109563538,
    "meta": 1561109564764,
    "relativePath": "js\\home\\enterPointer.js"
  },
  "57ded4da-766a-47cf-b222-8960e30ae981": {
    "asset": 1561213815788,
    "meta": 1561124687282,
    "relativePath": "export"
  },
  "e8ecb4b0-bfd9-474a-8524-ccf2a9197c0f": {
    "asset": 1561124931416,
    "meta": 1561124693197,
    "relativePath": "export\\music"
  },
  "28180a2c-9669-489e-bdf5-f9c67448fef6": {
    "asset": 1561124693105,
    "meta": 1561124693200,
    "relativePath": "export\\music\\audio"
  },
  "ed297887-5d0e-424a-b7ec-b06e3ea0fd88": {
    "asset": 1561124693155,
    "meta": 1561124693231,
    "relativePath": "export\\music\\audio\\bom.wav"
  },
  "4a92803b-b25c-495e-9573-d73d6be6e795": {
    "asset": 1561124693131,
    "meta": 1561124693236,
    "relativePath": "export\\music\\audio\\CHAKA.m4a"
  },
  "0bea8af1-bc7e-4aad-b0d7-ddb1bf7138cf": {
    "asset": 1561124693138,
    "meta": 1561124693247,
    "relativePath": "export\\music\\audio\\feverSSound.m4a"
  },
  "f9e5b42d-4eb8-4187-bbcb-e9fc19258d43": {
    "asset": 1561124693127,
    "meta": 1561124693252,
    "relativePath": "export\\music\\audio\\DON.m4a"
  },
  "f98ed3c0-4dc9-4781-9d4e-b4ad68fd8656": {
    "asset": 1561124693142,
    "meta": 1561124693263,
    "relativePath": "export\\music\\audio\\misssound.mp3"
  },
  "ba282cad-d2ba-4d50-842f-a8eb8aa41f58": {
    "asset": 1561124693131,
    "meta": 1561124693268,
    "relativePath": "export\\music\\audio\\PATA.m4a"
  },
  "bc3f1426-daf7-4134-8b1b-d8b7b95ba12f": {
    "asset": 1561124693135,
    "meta": 1561124693280,
    "relativePath": "export\\music\\audio\\PON.m4a"
  },
  "55d110b9-bab6-4d9d-9416-03e46904fa35": {
    "asset": 1561124693145,
    "meta": 1561124693292,
    "relativePath": "export\\music\\audio\\score.mp3"
  },
  "8b81c64c-b6c1-46d7-a6d7-14b516107c03": {
    "asset": 1561124693186,
    "meta": 1561124693304,
    "relativePath": "export\\music\\audio\\pata4.wav"
  },
  "86b17716-d90e-4814-b8a4-57f68cd69622": {
    "asset": 1561124693180,
    "meta": 1561124693317,
    "relativePath": "export\\music\\audio\\y2mate.com - patapon_3_soundtrack_16_Flb_vxaMyrI_320kbps.mp3"
  },
  "511cbabc-fa87-4c61-ae1b-50407b4c4c34": {
    "asset": 1561125828747,
    "meta": 1561124693209,
    "relativePath": "export\\music\\musicimg"
  },
  "2908d1e3-be39-403a-aef6-19845b01b2ed": {
    "asset": 1561124693143,
    "meta": 1561124693398,
    "relativePath": "export\\music\\musicimg\\bar_2.png"
  },
  "21e39c5f-b8f3-4ed8-9474-fa86733c36e8": {
    "asset": 1561124693180,
    "meta": 1561124693427,
    "relativePath": "export\\music\\audio\\y2mate.com - pikkurakottabikkura_kotta_mochichichis_theme_theme_instrumental_patapon_Clg88AKcu50_320kbps.mp3"
  },
  "e3f34a38-0612-41f4-a6eb-32f751ce515e": {
    "asset": 1561124693146,
    "meta": 1561124693520,
    "relativePath": "export\\music\\musicimg\\don.png"
  },
  "593726b8-5b39-443f-827f-92a3901be1c5": {
    "asset": 1561124693149,
    "meta": 1561124693530,
    "relativePath": "export\\music\\musicimg\\chaka.png"
  },
  "cdb4db39-ef07-47e3-b591-a5971f88aa6a": {
    "asset": 1561124693150,
    "meta": 1561124693559,
    "relativePath": "export\\music\\musicimg\\pata.png"
  },
  "f2b4ee96-4a83-4905-8fe4-5df1a6ff6287": {
    "asset": 1561124693146,
    "meta": 1561124693567,
    "relativePath": "export\\music\\musicimg\\pon.png"
  },
  "78fb247c-4a8a-40b2-8ebf-b12ef78065c8": {
    "asset": 1561124693150,
    "meta": 1561124693590,
    "relativePath": "export\\music\\musicimg\\progressbar_2.png"
  },
  "d46088e9-ab31-4120-ae00-ae8cbbd03d9c": {
    "asset": 1561124693158,
    "meta": 1561124693629,
    "relativePath": "export\\music\\musicimg\\rainbow.png"
  },
  "8c1c7ad4-cd40-4106-9bbb-6e28c18ee58a": {
    "asset": 1561124931393,
    "meta": 1561124931419,
    "relativePath": "export\\music\\scripts"
  },
  "2facd05d-6344-4673-bbab-b00d9d9f1328": {
    "asset": 1561125825095,
    "meta": 1561125825107,
    "relativePath": "export\\music\\musicimg\\intruimg.prefab"
  },
  "e939bd87-8905-4faa-8c99-40fcdbb2aec6": {
    "asset": 1561125828741,
    "meta": 1561125828751,
    "relativePath": "export\\music\\musicimg\\rainbow.prefab"
  },
  "3aecfa44-71c2-4c6b-8b0b-df9056987016": {
    "asset": 1561205902938,
    "meta": 1561126483762,
    "relativePath": "js\\Manage"
  },
  "4397f846-0c78-466e-9817-9c6834bea360": {
    "asset": 1561128297198,
    "meta": 1561128297209,
    "relativePath": "characters\\knight\\anim\\knight_attack.anim"
  },
  "302d4c48-3bbb-44ac-ad45-e16994f36d99": {
    "asset": 1561128231728,
    "meta": 1561128231756,
    "relativePath": "characters\\knight\\anim\\knight_1.anim"
  },
  "212ec87e-af8e-42c6-b5b4-8332326c0f4c": {
    "asset": 1561128606030,
    "meta": 1561128606041,
    "relativePath": "characters\\anchor\\anim\\anchor_attack.anim"
  },
  "d59d45ea-b32a-4d1d-ba55-ff190d44b807": {
    "asset": 1561128574278,
    "meta": 1561128574290,
    "relativePath": "characters\\magic\\anim\\magic_attack.anim"
  },
  "6166df97-42a3-4952-b1f4-23f74d230ce6": {
    "asset": 1561106831725,
    "meta": 1561168382100,
    "relativePath": "animation\\character\\anchor_attack.anim"
  },
  "fd910066-0a10-4352-8dfa-4fca9acf0e72": {
    "asset": 1561106838033,
    "meta": 1561168382100,
    "relativePath": "animation\\character\\knight_1_attack.anim"
  },
  "4cae38c3-5a7d-4f7e-9c85-ee0b9342999b": {
    "asset": 1561106838033,
    "meta": 1561168382100,
    "relativePath": "animation\\character\\knight_1.anim"
  },
  "9686649a-367c-4d0c-9e86-4207b005e978": {
    "asset": 1561106855186,
    "meta": 1561168382116,
    "relativePath": "animation\\character\\magic_attack.anim"
  },
  "e851e89b-faa2-4484-bea6-5c01dd9f06e2": {
    "asset": 1552197698000,
    "meta": 1561169143283,
    "relativePath": "image\\default_btn_normal.png"
  },
  "71561142-4c83-4933-afca-cb7a17f67053": {
    "asset": 1552197698000,
    "meta": 1561169143289,
    "relativePath": "image\\default_btn_disabled.png"
  },
  "b43ff3c2-02bb-4874-81f7-f2dea6970f18": {
    "asset": 1552197698000,
    "meta": 1561169143302,
    "relativePath": "image\\default_btn_pressed.png"
  },
  "edd215b9-2796-4a05-aaf5-81f96c9281ce": {
    "asset": 1552197698000,
    "meta": 1561169143306,
    "relativePath": "image\\default_editbox_bg.png"
  },
  "d81ec8ad-247c-4e62-aa3c-d35c4193c7af": {
    "asset": 1552197698000,
    "meta": 1561169143318,
    "relativePath": "image\\default_panel.png"
  },
  "99170b0b-d210-46f1-b213-7d9e3f23098a": {
    "asset": 1552197698000,
    "meta": 1561169143322,
    "relativePath": "image\\default_progressbar_bg.png"
  },
  "567dcd80-8bf4-4535-8a5a-313f1caf078a": {
    "asset": 1552197698000,
    "meta": 1561169143333,
    "relativePath": "image\\default_radio_button_off.png"
  },
  "cfef78f1-c8df-49b7-8ed0-4c953ace2621": {
    "asset": 1552197698000,
    "meta": 1561169143338,
    "relativePath": "image\\default_progressbar.png"
  },
  "4bab67cb-18e6-4099-b840-355f0473f890": {
    "asset": 1552197698000,
    "meta": 1561169143348,
    "relativePath": "image\\default_scrollbar_bg.png"
  },
  "9d60001f-b5f4-4726-a629-2659e3ded0b8": {
    "asset": 1552197698000,
    "meta": 1561169143351,
    "relativePath": "image\\default_radio_button_on.png"
  },
  "617323dd-11f4-4dd3-8eec-0caf6b3b45b9": {
    "asset": 1552197698000,
    "meta": 1561169143362,
    "relativePath": "image\\default_scrollbar_vertical_bg.png"
  },
  "d6d3ca85-4681-47c1-b5dd-d036a9d39ea2": {
    "asset": 1552197698000,
    "meta": 1561169143365,
    "relativePath": "image\\default_scrollbar_vertical.png"
  },
  "0291c134-b3da-4098-b7b5-e397edbe947f": {
    "asset": 1552197698000,
    "meta": 1561169143375,
    "relativePath": "image\\default_scrollbar.png"
  },
  "0275e94c-56a7-410f-bd1a-fc7483f7d14a": {
    "asset": 1552197698000,
    "meta": 1561169143379,
    "relativePath": "image\\default_sprite_splash.png"
  },
  "6e056173-d285-473c-b206-40a7fff5386e": {
    "asset": 1552197698000,
    "meta": 1561169143391,
    "relativePath": "image\\default_sprite.png"
  },
  "73a0903d-d80e-4e3c-aa67-f999543c08f5": {
    "asset": 1552197698000,
    "meta": 1561169143395,
    "relativePath": "image\\default_toggle_checkmark.png"
  },
  "c25b9d50-c8fc-4d27-beeb-6e7c1f2e5c0f": {
    "asset": 1552197698000,
    "meta": 1561169143408,
    "relativePath": "image\\default_toggle_disabled.png"
  },
  "d29077ba-1627-4a72-9579-7b56a235340c": {
    "asset": 1552197698000,
    "meta": 1561169143413,
    "relativePath": "image\\default_toggle_normal.png"
  },
  "2be36297-9abb-4fee-8049-9ed5e271da8a": {
    "asset": 1552197698000,
    "meta": 1561169143424,
    "relativePath": "misc\\default_video.mp4"
  },
  "b181c1e4-0a72-4a91-bfb0-ae6f36ca60bd": {
    "asset": 1552197698000,
    "meta": 1561169143429,
    "relativePath": "image\\default_toggle_pressed.png"
  },
  "b8223619-7e38-47c4-841f-9160c232495a": {
    "asset": 1552197698000,
    "meta": 1561169143637,
    "relativePath": "obsolete\\atom.plist"
  },
  "b2687ac4-099e-403c-a192-ff477686f4f5": {
    "asset": 1552197698000,
    "meta": 1561169143640,
    "relativePath": "particle\\atom.plist"
  },
  "8a96b965-2dc0-4e03-aa90-3b79cb93b5b4": {
    "asset": 1552197698000,
    "meta": 1561169143459,
    "relativePath": "obsolete\\atom.png"
  },
  "d0a82d39-bede-46c4-b698-c81ff0dedfff": {
    "asset": 1552197698000,
    "meta": 1561169143464,
    "relativePath": "particle\\atom.png"
  },
  "972b9a4d-47ee-4c74-b5c3-61d8a69bc29f": {
    "asset": 1552197698000,
    "meta": 1561169143474,
    "relativePath": "prefab\\button.prefab"
  },
  "2c937608-2562-40ea-b264-7395df6f0cea": {
    "asset": 1552197698000,
    "meta": 1561169143481,
    "relativePath": "prefab\\canvas.prefab"
  },
  "61aeb05b-3b32-452b-8eed-2b76deeed554": {
    "asset": 1552197698000,
    "meta": 1561169143486,
    "relativePath": "prefab\\editbox.prefab"
  },
  "27756ebb-3d33-44b0-9b96-e858fadd4dd4": {
    "asset": 1552197698000,
    "meta": 1561169143492,
    "relativePath": "prefab\\label.prefab"
  },
  "785a442c-3ceb-45be-a46e-7317f625f3b9": {
    "asset": 1552197698000,
    "meta": 1561169143498,
    "relativePath": "prefab\\layout.prefab"
  },
  "ca8401fe-ad6e-41a8-bd46-8e3e4e9945be": {
    "asset": 1552197698000,
    "meta": 1561169143506,
    "relativePath": "prefab\\pageview.prefab"
  },
  "cd33edea-55f5-46c2-958d-357a01384a36": {
    "asset": 1552197698000,
    "meta": 1561169143510,
    "relativePath": "prefab\\particlesystem.prefab"
  },
  "5965ffac-69da-4b55-bcde-9225d0613c28": {
    "asset": 1552197698000,
    "meta": 1561169143516,
    "relativePath": "prefab\\progressBar.prefab"
  },
  "4a37dd57-78cd-4cec-aad4-f11a73d12b63": {
    "asset": 1552197698000,
    "meta": 1561169143521,
    "relativePath": "prefab\\richtext.prefab"
  },
  "32044bd2-481f-4cf1-a656-e2b2fb1594eb": {
    "asset": 1552197698000,
    "meta": 1561169143530,
    "relativePath": "prefab\\scrollview.prefab"
  },
  "0004d1cf-a0ad-47d8-ab17-34d3db9d35a3": {
    "asset": 1552197698000,
    "meta": 1561169143535,
    "relativePath": "prefab\\slider.prefab"
  },
  "1f55e3be-b89b-4b79-88de-47fd31018044": {
    "asset": 1552197698000,
    "meta": 1561169143542,
    "relativePath": "prefab\\sprite_splash.prefab"
  },
  "96083d03-c332-4a3f-9386-d03e2d19e8ee": {
    "asset": 1552197698000,
    "meta": 1561169143549,
    "relativePath": "prefab\\sprite.prefab"
  },
  "7de03a80-4457-438d-95a7-3e7cdffd6086": {
    "asset": 1552197698000,
    "meta": 1561169143558,
    "relativePath": "prefab\\tiledmap.prefab"
  },
  "0e42ba95-1fa1-46aa-b2cf-143cd1bcee2c": {
    "asset": 1552197698000,
    "meta": 1561169143562,
    "relativePath": "prefab\\tiledtile.prefab"
  },
  "0d784963-d024-4ea6-a7db-03be0ad63010": {
    "asset": 1552197698000,
    "meta": 1561169143566,
    "relativePath": "prefab\\toggle.prefab"
  },
  "bf0a434c-84dd-4a8e-a08a-7a36f180cc75": {
    "asset": 1552197698000,
    "meta": 1561169143575,
    "relativePath": "prefab\\toggleContainer.prefab"
  },
  "d1b8be49-b0a0-435c-83b7-552bed4bbe35": {
    "asset": 1552197698000,
    "meta": 1561169143583,
    "relativePath": "prefab\\toggleGroup.prefab"
  },
  "232d2782-c4bd-4bb4-9e01-909f03d6d3b9": {
    "asset": 1552197698000,
    "meta": 1561169143588,
    "relativePath": "prefab\\videoplayer.prefab"
  },
  "8c5001fd-07ee-4a4b-a8a0-63e15195e94d": {
    "asset": 1552197698000,
    "meta": 1561169143594,
    "relativePath": "prefab\\webview.prefab"
  },
  "f44cc205-8612-407a-a900-cd0a5a3a634d": {
    "asset": 1561170745472,
    "meta": 1561170746351,
    "relativePath": "js\\Level\\ImageChange.js"
  },
  "27fea6a9-4a10-4b49-a151-b641ac1c3bc4": {
    "asset": 1561205427544,
    "meta": 1561205427556,
    "relativePath": "characters\\anchor\\prefab\\anchor.prefab"
  },
  "9a4aa35b-57fb-416d-9877-59d60520e8fc": {
    "asset": 1561182198093,
    "meta": 1561182425190,
    "relativePath": "Prefab\\character\\anchor.prefab"
  },
  "cdfb5c2d-2cf9-4eb4-8e52-9164876d7a26": {
    "asset": 1561194606129,
    "meta": 1561194606150,
    "relativePath": "Prefab\\arrow.prefab"
  },
  "5a8efc2c-3beb-40b5-bdba-30a05b22c75b": {
    "asset": 1561252096940,
    "meta": 1561252096963,
    "relativePath": "Level1.fire"
  },
  "ab7a4b09-24b7-4cea-8f2b-c0bab83859a6": {
    "asset": 1561217031407,
    "meta": 1561204565774,
    "relativePath": "Boss_Enemy_Attack\\attack_effect"
  },
  "0a7be444-912c-4682-935d-501de4cec8f0": {
    "asset": 1561204565758,
    "meta": 1561204565909,
    "relativePath": "Boss_Enemy_Attack\\attack_effect\\exp.plist"
  },
  "38b727c6-e9ee-438e-a021-f87201ea1c97": {
    "asset": 1561204565759,
    "meta": 1561204565911,
    "relativePath": "Boss_Enemy_Attack\\attack_effect\\ice.plist"
  },
  "ff5ac111-afbb-4e76-bc90-5c5a0501e93a": {
    "asset": 1561204565757,
    "meta": 1561204565932,
    "relativePath": "Boss_Enemy_Attack\\attack_effect\\snow.plist"
  },
  "b93bff0b-0493-4687-aed1-d073f09d583e": {
    "asset": 1561204565760,
    "meta": 1561204565931,
    "relativePath": "Boss_Enemy_Attack\\attack_effect\\三味真火.plist"
  },
  "b1305d33-30ae-4747-b6e6-08ba9cd135af": {
    "asset": 1561204565762,
    "meta": 1561204565951,
    "relativePath": "Boss_Enemy_Attack\\attack_effect\\吾知咩黎.plist"
  },
  "11dc24b3-97cf-473f-ade5-64644c1caff8": {
    "asset": 1561204565760,
    "meta": 1561204565952,
    "relativePath": "Boss_Enemy_Attack\\attack_effect\\大劍氣.plist"
  },
  "7e3bc0f1-d179-4c96-811b-d3b3f5d9d139": {
    "asset": 1561204565762,
    "meta": 1561204565971,
    "relativePath": "Boss_Enemy_Attack\\attack_effect\\水流攻擊.plist"
  },
  "24a58093-a880-4974-b101-98ab4ab8e736": {
    "asset": 1561204565761,
    "meta": 1561204565969,
    "relativePath": "Boss_Enemy_Attack\\attack_effect\\流星雨.plist"
  },
  "3df6bb82-1150-4499-a9e2-6aadf6db3426": {
    "asset": 1561204565763,
    "meta": 1561204565987,
    "relativePath": "Boss_Enemy_Attack\\attack_effect\\火.plist"
  },
  "a6624d7d-1899-4f53-83f4-9bc5157342c2": {
    "asset": 1561204565764,
    "meta": 1561204565988,
    "relativePath": "Boss_Enemy_Attack\\attack_effect\\火花.plist"
  },
  "28d406fd-fbc0-4d92-8e4e-86349d5d1e6d": {
    "asset": 1561204565763,
    "meta": 1561204566004,
    "relativePath": "Boss_Enemy_Attack\\attack_effect\\真冰.plist"
  },
  "d2cecbdc-0c28-4407-8d17-557bd8652406": {
    "asset": 1561204565764,
    "meta": 1561204566005,
    "relativePath": "Boss_Enemy_Attack\\attack_effect\\紫色劍氣.plist"
  },
  "97df6783-b6f1-4bdc-a4d9-e472e102355f": {
    "asset": 1561210129178,
    "meta": 1561210130916,
    "relativePath": "export\\music\\scripts\\rainbow.js"
  },
  "0e7e8437-9c75-472f-86c2-67856fbaefe3": {
    "asset": 1561212369492,
    "meta": 1561212369508,
    "relativePath": "Boss_Enemy_Attack\\attack_effect\\火.prefab"
  },
  "0a082856-c5bc-4f9f-8354-041cce4148b0": {
    "asset": 1561213444771,
    "meta": 1561213445613,
    "relativePath": "js\\Manage\\AttackCollide.js"
  },
  "e3d20aba-103d-4b93-ba30-37f88b845833": {
    "asset": 1561213815810,
    "meta": 1561213815792,
    "relativePath": "export\\die"
  },
  "c9ad8838-82fd-4adb-ace6-7dac1dbaf69a": {
    "asset": 1561213815477,
    "meta": 1561213815858,
    "relativePath": "export\\die\\anchor_die.png"
  },
  "bee50924-0a18-4dcb-82ae-6efc3804595e": {
    "asset": 1561213815475,
    "meta": 1561213815868,
    "relativePath": "export\\die\\knight_2_die.png"
  },
  "71eb5310-4d13-47b5-a78f-3a3ddb854a8d": {
    "asset": 1561213815475,
    "meta": 1561213815895,
    "relativePath": "export\\die\\knight_die.png"
  },
  "150a19af-df1c-448b-8e8d-9f61547d98ec": {
    "asset": 1561213815477,
    "meta": 1561213815906,
    "relativePath": "export\\die\\magic_die.png"
  },
  "16dd78a3-d437-4e85-8a26-16d03958884f": {
    "asset": 1561213815785,
    "meta": 1561213815930,
    "relativePath": "export\\die\\Thumbs.db"
  },
  "b1629ae9-9fac-4ae0-8334-0a64f584cefb": {
    "asset": 1561216722269,
    "meta": 1561216722285,
    "relativePath": "Boss_Enemy_Attack\\attack_effect\\紫色劍氣.prefab"
  },
  "db6fc3b7-8f56-4b25-b0fb-d3785ab664f2": {
    "asset": 1561216974566,
    "meta": 1561216974582,
    "relativePath": "Boss_Enemy_Attack\\attack_effect\\火花.prefab"
  },
  "e84d51b4-987d-4f0f-9eef-29f8d2c2db52": {
    "asset": 1561217031395,
    "meta": 1561217031439,
    "relativePath": "Boss_Enemy_Attack\\attack_effect\\龍之哇息.plist"
  },
  "b1c0f2c8-85d7-4a0d-87f3-6b0a5625b1f8": {
    "asset": 1561219014039,
    "meta": 1561219014166,
    "relativePath": "img\\65144141_2311791195746498_4123588282594361344_n.png"
  },
  "337e2076-0299-424e-b17f-cb355a5008fd": {
    "asset": 1561252559500,
    "meta": 1561252559514,
    "relativePath": "Level2.fire"
  },
  "3b6e3866-d049-47a9-9e42-7d5264a88d3d": {
    "asset": 1561224042317,
    "meta": 1561224077626,
    "relativePath": "js\\home\\backToHome.js"
  },
  "d18c8ffe-4592-4976-958d-d565841929fb": {
    "asset": 1561245230361,
    "meta": 1561245230382,
    "relativePath": "characters\\knight\\anim\\n_knight_attack.anim"
  },
  "87bd88e9-32c4-489a-a60a-75f88749c5b3": {
    "asset": 1561245041310,
    "meta": 1561245041319,
    "relativePath": "characters\\knight\\anim\\n_knight_1.anim"
  },
  "5c16637d-050b-44b1-a854-89ab19cd6804": {
    "asset": 1561247333654,
    "meta": 1561247826508,
    "relativePath": "js\\Global.js"
  },
  "4f5eb9d6-1cca-445f-aa1e-c256b5bd3066": {
    "asset": 1561247701689,
    "meta": 1561247827025,
    "relativePath": "js\\home\\item.js"
  },
  "190747dc-2564-49fb-8aca-217e96271660": {
    "asset": 1561248164216,
    "meta": 1561248165463,
    "relativePath": "js\\home\\home.js"
  },
  "89f87406-ef1c-4a1e-b0cf-53c8a4e3b853": {
    "asset": 1561248786606,
    "meta": 1561248787256,
    "relativePath": "js\\Chest\\usingItem.js"
  },
  "4c2678c9-c20d-498a-a04b-c2bfcbf6ed35": {
    "asset": 1561248844418,
    "meta": 1561248845094,
    "relativePath": "js\\home\\chest.js"
  },
  "5b7bb17c-b476-4578-b313-07b89f49901a": {
    "asset": 1561249558504,
    "meta": 1561249558552,
    "relativePath": "img\\home\\game_name.png"
  },
  "c4aeef23-ddb3-4c0b-abd3-6575e4921782": {
    "asset": 1561249682877,
    "meta": 1561249682919,
    "relativePath": "atlas\\effect1.plist"
  },
  "c777bdab-e8d4-4250-96b4-0390b0936184": {
    "asset": 1561249703917,
    "meta": 1561249703945,
    "relativePath": "atlas\\effect2.plist"
  },
  "43093c6d-ba3c-47f9-8d38-72a71fbfaf2b": {
    "asset": 1561249873589,
    "meta": 1561249874784,
    "relativePath": "js\\home\\goToChest.js"
  },
  "acd72714-28d4-4e23-97f8-88ad908cedc9": {
    "asset": 1561251257404,
    "meta": 1561251369379,
    "relativePath": "js\\Manage\\GameManager.js"
  },
  "464fa077-e7e1-4c88-850b-fe1b0adb9d9b": {
    "asset": 1561251875806,
    "meta": 1561251875870,
    "relativePath": "img\\64751875_1044132309125166_5437419573009711104_n.png"
  },
  "b775b563-42a9-4e30-976e-2344211344e1": {
    "asset": 1561251875806,
    "meta": 1561251875878,
    "relativePath": "img\\65019205_463393677831013_3296695825576493056_n.png"
  }
}