{
  "__type__": "cc.SpriteFrame",
  "content": {
    "name": "tile003",
    "texture": "a93a64f3-d0d1-43cb-98df-5d79b6188baa",
    "atlas": "",
    "rect": [
      10,
      48,
      195,
      97
    ],
    "offset": [
      0,
      30.5
    ],
    "originalSize": [
      215,
      254
    ],
    "capInsets": [
      0,
      0,
      0,
      0
    ]
  }
}