{
  "__type__": "cc.SpriteFrame",
  "content": {
    "name": "tile016",
    "texture": "5e7a4c8d-e37b-4995-9a6a-f6023033e4f8",
    "atlas": "",
    "rect": [
      12,
      13,
      186,
      240
    ],
    "offset": [
      -2.5,
      -6
    ],
    "originalSize": [
      215,
      254
    ],
    "capInsets": [
      0,
      0,
      0,
      0
    ]
  }
}