{
  "__type__": "cc.AnimationClip",
  "_name": "enemy3",
  "_objFlags": 0,
  "_native": "",
  "_duration": 0.26666666666666666,
  "sample": 60,
  "speed": 0.6,
  "wrapMode": 2,
  "curveData": {
    "comps": {
      "cc.Sprite": {
        "spriteFrame": [
          {
            "frame": 0,
            "value": {
              "__uuid__": "0b432acf-ca6a-4990-8325-122261cfb347"
            }
          },
          {
            "frame": 0.08333333333333333,
            "value": {
              "__uuid__": "dd34d01c-a854-4379-913f-416c419de2fe"
            }
          },
          {
            "frame": 0.16666666666666666,
            "value": {
              "__uuid__": "96559838-a276-4f15-845e-96709d7b66fe"
            }
          },
          {
            "frame": 0.25,
            "value": {
              "__uuid__": "a33c7c26-8686-4074-9473-b97cec03e54a"
            }
          }
        ]
      }
    }
  },
  "events": []
}