{
  "__type__": "cc.SpriteFrame",
  "content": {
    "name": "tile008",
    "texture": "e5945787-2954-4ed5-853a-5357feba748f",
    "atlas": "",
    "rect": [
      55,
      50,
      643,
      515
    ],
    "offset": [
      -23.5,
      -7.5
    ],
    "originalSize": [
      800,
      600
    ],
    "capInsets": [
      0,
      0,
      0,
      0
    ]
  }
}