{
  "__type__": "cc.SpriteFrame",
  "content": {
    "name": "tile011",
    "texture": "d1685e91-0cfe-4f16-b6fc-cb75322b0cd3",
    "atlas": "",
    "rect": [
      0,
      9,
      141,
      192
    ],
    "offset": [
      0,
      -1
    ],
    "originalSize": [
      141,
      208
    ],
    "capInsets": [
      0,
      0,
      0,
      0
    ]
  }
}