{
  "__type__": "cc.SpriteFrame",
  "content": {
    "name": "portal",
    "texture": "5dee49d8-0b9a-4faa-b270-b3d777f51d48",
    "atlas": "",
    "rect": [
      3,
      3,
      1994,
      393
    ],
    "offset": [
      0,
      0.5
    ],
    "originalSize": [
      2000,
      400
    ],
    "capInsets": [
      0,
      0,
      0,
      0
    ]
  }
}