{
  "__type__": "cc.SpriteFrame",
  "content": {
    "name": "tile010",
    "texture": "5d9cd0ed-148d-4311-a882-5dd4dab4004e",
    "atlas": "",
    "rect": [
      0,
      8,
      141,
      194
    ],
    "offset": [
      0,
      -1
    ],
    "originalSize": [
      141,
      208
    ],
    "capInsets": [
      0,
      0,
      0,
      0
    ]
  }
}