{
  "__type__": "cc.SpriteAtlas",
  "_name": "prototype.plist",
  "_objFlags": 0,
  "_native": "",
  "_spriteFrames": {
    "sprite_0": {
      "__uuid__": "def68a76-a484-4237-820d-97eee24ec8aa"
    },
    "sprite_1": {
      "__uuid__": "c73344ec-0bba-4d41-b65f-d62375cb432c"
    }
  }
}