{
  "__type__": "cc.SpriteFrame",
  "content": {
    "name": "tile002",
    "texture": "8c06a6bc-1435-4026-8299-eb8fad4b9a6a",
    "atlas": "",
    "rect": [
      0,
      0,
      162,
      123
    ],
    "offset": [
      -4,
      0
    ],
    "originalSize": [
      170,
      123
    ],
    "capInsets": [
      0,
      0,
      0,
      0
    ]
  }
}