{
  "__type__": "cc.SpriteFrame",
  "content": {
    "name": "tile000",
    "texture": "693fa842-f6ff-4b56-9fa3-11d0bbd98a9d",
    "atlas": "",
    "rect": [
      7,
      4,
      66,
      63
    ],
    "offset": [
      0,
      -0.5
    ],
    "originalSize": [
      80,
      70
    ],
    "capInsets": [
      0,
      0,
      0,
      0
    ]
  }
}