{
  "__type__": "cc.SpriteFrame",
  "content": {
    "name": "music",
    "texture": "7cf557ff-1cdb-4a48-a91e-419f0cdc134e",
    "atlas": "",
    "rect": [
      0,
      0,
      48,
      48
    ],
    "offset": [
      0,
      0
    ],
    "originalSize": [
      48,
      48
    ],
    "capInsets": [
      0,
      0,
      0,
      0
    ]
  }
}