{
  "__type__": "cc.SpriteFrame",
  "content": {
    "name": "chestSel",
    "texture": "fd5b75e6-0c37-49b7-a7a3-2973c854e232",
    "atlas": "",
    "rect": [
      0,
      0,
      1516,
      1143
    ],
    "offset": [
      -13,
      10
    ],
    "originalSize": [
      1542,
      1163
    ],
    "capInsets": [
      0,
      0,
      0,
      0
    ]
  }
}