{
  "__type__": "cc.SpriteFrame",
  "content": {
    "name": "tile004",
    "texture": "8f5e09dd-74b8-4136-9545-aea2382ac877",
    "atlas": "",
    "rect": [
      2,
      1,
      172,
      143
    ],
    "offset": [
      0,
      0
    ],
    "originalSize": [
      176,
      145
    ],
    "capInsets": [
      0,
      0,
      0,
      0
    ]
  }
}