{
  "__type__": "cc.AnimationClip",
  "_name": "portal",
  "_objFlags": 0,
  "_native": "",
  "_duration": 0.65,
  "sample": 60,
  "speed": 1,
  "wrapMode": 1,
  "curveData": {
    "comps": {
      "cc.Sprite": {
        "spriteFrame": [
          {
            "frame": 0,
            "value": {
              "__uuid__": "01787c2d-d720-4cad-b538-048cb58ac95d"
            }
          },
          {
            "frame": 0.03333333333333333,
            "value": {
              "__uuid__": "679b9dfd-4945-487c-b15a-047fb8348503"
            }
          },
          {
            "frame": 0.06666666666666667,
            "value": {
              "__uuid__": "ca165485-45de-4031-b5a3-bc5a90eec3cf"
            }
          },
          {
            "frame": 0.1,
            "value": {
              "__uuid__": "6086d63e-8331-4706-9874-dd4749828de7"
            }
          },
          {
            "frame": 0.13333333333333333,
            "value": {
              "__uuid__": "c23b268a-4043-4abd-bdb0-6da390e2e88d"
            }
          },
          {
            "frame": 0.16666666666666666,
            "value": {
              "__uuid__": "a0287e02-e7c1-41a7-b268-63d8d1871078"
            }
          },
          {
            "frame": 0.2,
            "value": {
              "__uuid__": "45701222-6e59-41fc-8ec9-db64f1f025be"
            }
          },
          {
            "frame": 0.23333333333333334,
            "value": {
              "__uuid__": "1fb7d066-9541-4e77-ad73-227232a56501"
            }
          },
          {
            "frame": 0.26666666666666666,
            "value": {
              "__uuid__": "31d1c87c-43d3-4925-b433-60ada309aebc"
            }
          },
          {
            "frame": 0.3,
            "value": {
              "__uuid__": "37d93066-0607-4f3b-a97a-fa1d4458907f"
            }
          },
          {
            "frame": 0.3333333333333333,
            "value": {
              "__uuid__": "ee38ca60-9ef5-459a-9693-0f29aa2c4e1c"
            }
          },
          {
            "frame": 0.36666666666666664,
            "value": {
              "__uuid__": "8da5e52f-6c44-4feb-89aa-3af27900326b"
            }
          },
          {
            "frame": 0.4,
            "value": {
              "__uuid__": "f968c03f-0125-4269-9939-f34476127900"
            }
          },
          {
            "frame": 0.43333333333333335,
            "value": {
              "__uuid__": "08663bd7-1ead-4a6e-8a36-0296a2fbdf31"
            }
          },
          {
            "frame": 0.4666666666666667,
            "value": {
              "__uuid__": "96a5770b-dad9-46a2-82ea-77a5498c61c7"
            }
          },
          {
            "frame": 0.5,
            "value": {
              "__uuid__": "1baa5167-d463-43fb-aae3-2c6dda31b20d"
            }
          },
          {
            "frame": 0.5333333333333333,
            "value": {
              "__uuid__": "9e13a0ca-8ac8-43b5-ba9e-9e6ff3d0f867"
            }
          },
          {
            "frame": 0.5666666666666667,
            "value": {
              "__uuid__": "6b6b72f7-e57c-44fe-8862-0ae0a87c945a"
            }
          },
          {
            "frame": 0.6,
            "value": {
              "__uuid__": "4ebaa917-9b17-42c9-8ab0-d242a2f28005"
            }
          },
          {
            "frame": 0.6333333333333333,
            "value": {
              "__uuid__": "0cf4729d-9dfe-482d-b72c-a07617c136ad"
            }
          }
        ]
      }
    }
  },
  "events": []
}