{
  "__type__": "cc.SpriteFrame",
  "content": {
    "name": "65144141_2311791195746498_4123588282594361344_n",
    "texture": "b1c0f2c8-85d7-4a0d-87f3-6b0a5625b1f8",
    "atlas": "",
    "rect": [
      9,
      12,
      632,
      235
    ],
    "offset": [
      0,
      10.5
    ],
    "originalSize": [
      650,
      280
    ],
    "capInsets": [
      0,
      0,
      0,
      0
    ]
  }
}