{
  "__type__": "cc.SpriteFrame",
  "content": {
    "name": "tile001",
    "texture": "75ca311c-3436-422e-b9c1-c23b23bccc40",
    "atlas": "",
    "rect": [
      0,
      12,
      79,
      78
    ],
    "offset": [
      -2,
      -6
    ],
    "originalSize": [
      83,
      90
    ],
    "capInsets": [
      0,
      0,
      0,
      0
    ]
  }
}