{
  "__type__": "cc.AnimationClip",
  "_name": "prototype_walk",
  "_objFlags": 0,
  "_native": "",
  "_duration": 0.35,
  "sample": 60,
  "speed": 1,
  "wrapMode": 1,
  "curveData": {
    "comps": {
      "cc.Sprite": {
        "spriteFrame": [
          {
            "frame": 0,
            "value": {
              "__uuid__": "def68a76-a484-4237-820d-97eee24ec8aa"
            }
          },
          {
            "frame": 0.16666666666666666,
            "value": {
              "__uuid__": "c73344ec-0bba-4d41-b65f-d62375cb432c"
            }
          },
          {
            "frame": 0.3333333333333333,
            "value": {
              "__uuid__": "def68a76-a484-4237-820d-97eee24ec8aa"
            }
          }
        ]
      }
    }
  },
  "events": []
}