{
  "__type__": "cc.SpriteFrame",
  "content": {
    "name": "tile000",
    "texture": "cb8f5d90-fd34-4bad-b95b-d78dc5bb605e",
    "atlas": "",
    "rect": [
      263,
      185,
      305,
      237
    ],
    "offset": [
      15.5,
      -3.5
    ],
    "originalSize": [
      800,
      600
    ],
    "capInsets": [
      0,
      0,
      0,
      0
    ]
  }
}