{
  "__type__": "cc.AnimationClip",
  "_name": "archer_walk",
  "_objFlags": 0,
  "_native": "",
  "_duration": 0.36666666666666664,
  "sample": 60,
  "speed": 1,
  "wrapMode": 1,
  "curveData": {
    "comps": {
      "cc.Sprite": {
        "spriteFrame": [
          {
            "frame": 0,
            "value": {
              "__uuid__": "47023898-a234-4874-bbdc-b082617f0ee2"
            }
          },
          {
            "frame": 0.18333333333333332,
            "value": {
              "__uuid__": "4a194d8f-4373-447f-87ec-0e04e7f0ec15"
            }
          },
          {
            "frame": 0.35,
            "value": {
              "__uuid__": "47023898-a234-4874-bbdc-b082617f0ee2"
            }
          }
        ]
      }
    }
  },
  "events": []
}