{
  "__type__": "cc.SpriteFrame",
  "content": {
    "name": "anchor(1)",
    "texture": "c4decb80-336a-491e-9e1f-ddc1f5ffb340",
    "atlas": "",
    "rect": [
      37,
      15,
      225,
      269
    ],
    "offset": [
      -0.5,
      0.5
    ],
    "originalSize": [
      300,
      300
    ],
    "capInsets": [
      0,
      0,
      0,
      0
    ]
  }
}