{
  "__type__": "cc.SpriteFrame",
  "content": {
    "name": "tile006",
    "texture": "d309986e-d6cc-4d56-860b-766a9aed86b3",
    "atlas": "",
    "rect": [
      1,
      3,
      174,
      142
    ],
    "offset": [
      0,
      -1.5
    ],
    "originalSize": [
      176,
      145
    ],
    "capInsets": [
      0,
      0,
      0,
      0
    ]
  }
}