{
  "__type__": "cc.SpriteFrame",
  "content": {
    "name": "tile016",
    "texture": "5dee49d8-0b9a-4faa-b270-b3d777f51d48",
    "atlas": "52756422-bb3f-4c0d-9ad8-d565b43883f7",
    "rect": [
      1200,
      200,
      200,
      200
    ],
    "offset": [
      0,
      0
    ],
    "originalSize": [
      200,
      200
    ],
    "capInsets": [
      0,
      0,
      0,
      0
    ]
  }
}